<?xml version="1.0" standalone="no"?>
<!DOCTYPE svg PUBLIC "-//W3C//DTD SVG 1.1//EN" "http://www.w3.org/Graphics/SVG/1.1/DTD/svg11.dtd" >
<svg xmlns="http://www.w3.org/2000/svg" xmlns:xlink="http://www.w3.org/1999/xlink" version="1.1">
<metadata>
Created by FontForge 20170731 at Mon Nov 12 22:36:01 2012
 By Aleksey,,,
Copyright (c) Mark Simonson, 2005. All rights reserved.
</metadata>
<defs>
<font id="ProximaNovaA-Light" horiz-adv-x="1169" >
  <font-face 
    font-family="Proxima Nova Alt Lt"
    font-weight="300"
    font-stretch="normal"
    units-per-em="2048"
    panose-1="2 0 5 6 3 0 0 2 0 4"
    ascent="1618"
    descent="-430"
    x-height="989"
    cap-height="1366"
    bbox="-199 -408 2161 1810"
    underline-thickness="40"
    underline-position="-311"
    unicode-range="U+000D-FB02"
  />
<missing-glyph horiz-adv-x="748" 
d="M68 0v1365h544v-1365h-544zM136 68h408v1229h-408v-1229z" />
    <glyph glyph-name="uniFB01" unicode="fi" horiz-adv-x="978" 
d="M37 895v94h164v90q0 145 72 226t196 81q82 0 133 -30l-33 -88q-39 22 -90 22q-84 0 -127 -55t-43 -156v-90h201v-94h-201v-895h-108v895h-164zM680 1227q0 33 24.5 56.5t57.5 23.5q34 0 58 -23t24 -57t-24 -58t-58 -24q-33 0 -57.5 24.5t-24.5 57.5zM709 0v989h106v-989
h-106z" />
    <glyph glyph-name="uniFB02" unicode="fl" horiz-adv-x="1067" 
d="M37 895v94h164v90q0 145 72 226t196 81q82 0 133 -30l-33 -88q-39 22 -90 22q-84 0 -127 -55t-43 -156v-90h201v-94h-201v-895h-108v895h-164zM709 190v1176h106v-1159q0 -62 26 -98.5t77 -36.5q67 0 110 47l41 -82q-65 -62 -168 -62q-95 0 -143.5 56t-48.5 159z" />
    <glyph glyph-name=".notdef" horiz-adv-x="748" 
d="M68 0v1365h544v-1365h-544zM136 68h408v1229h-408v-1229z" />
    <glyph glyph-name="glyph1" horiz-adv-x="0" 
 />
    <glyph glyph-name="glyph2" horiz-adv-x="682" 
 />
    <glyph glyph-name="glyph3" horiz-adv-x="0" 
 />
    <glyph glyph-name="glyph3" horiz-adv-x="0" 
 />
    <glyph glyph-name="uni000D" unicode="&#xd;" horiz-adv-x="0" 
 />
    <glyph glyph-name="space" unicode=" " horiz-adv-x="530" 
 />
    <glyph glyph-name="exclam" unicode="!" horiz-adv-x="448" 
d="M135 72q0 35 26.5 61.5t63.5 26.5t63.5 -26.5t26.5 -61.5q0 -37 -26.5 -63.5t-63.5 -26.5t-63.5 26.5t-26.5 63.5zM156 1366h137l-27 -1010h-84z" />
    <glyph glyph-name="quotedbl" unicode="&#x22;" horiz-adv-x="649" 
d="M119 1313q0 31 21 52t53 21q31 0 52 -21t21 -52l-43 -439h-61q-43 412 -43 439zM383 1313q0 31 21.5 52t52.5 21q32 0 52.5 -21t20.5 -52l-43 -439h-61q-43 412 -43 439z" />
    <glyph glyph-name="numbersign" unicode="#" horiz-adv-x="1185" 
d="M49 381l27 84h229l146 436h-232l25 84h235l125 381h96l-125 -381h240l125 381h98l-129 -381h228l-23 -84h-231l-148 -436h238l-27 -84h-237l-127 -381h-99l131 381h-241l-129 -381h-97l129 381h-227zM401 465h238l147 436h-239z" />
    <glyph glyph-name="dollar" unicode="$" horiz-adv-x="1196" 
d="M98 193l76 88q158 -181 385 -197v573q-55 16 -89.5 26.5t-84 29.5t-80 37t-65 46t-54 59.5t-32.5 74.5t-13 94q0 156 119.5 255t298.5 107v187h94v-187q250 -20 400 -190l-78 -86q-122 146 -322 168v-516q53 -15 91 -27t86 -32t81.5 -41t68 -51.5t55.5 -65t34.5 -81.5
t13.5 -102q0 -53 -13 -103t-45 -99.5t-80 -87t-123 -63.5t-169 -32v-182h-94v182q-149 7 -266.5 64.5t-194.5 151.5zM264 1030q0 -42 16 -76t41 -58t66 -45t79.5 -34.5t92.5 -28.5v492q-128 -6 -211.5 -76t-83.5 -174zM653 84q84 6 147 33.5t96.5 67.5t49 82t15.5 87
q0 60 -23.5 105.5t-70 77.5t-95 52.5t-119.5 41.5v-547z" />
    <glyph glyph-name="percent" unicode="%" horiz-adv-x="1474" 
d="M70 1049q0 146 89.5 241.5t229.5 95.5q142 0 232 -95.5t90 -241.5q0 -144 -90.5 -239t-231.5 -95q-140 0 -229.5 95t-89.5 239zM164 1049q0 -105 63.5 -179.5t161.5 -74.5q99 0 163 74.5t64 179.5q0 109 -63.5 183.5t-163.5 74.5q-98 0 -161.5 -74.5t-63.5 -183.5zM262 0
l873 1366h94l-875 -1366h-92zM764 309q0 146 90.5 242t230.5 96t231 -96t91 -242q0 -143 -91 -238.5t-231 -95.5t-230.5 95.5t-90.5 238.5zM858 309q0 -106 64 -180t163 -74t162.5 73.5t63.5 180.5q0 108 -63.5 183t-162.5 75t-163 -75t-64 -183z" />
    <glyph glyph-name="ampersand" unicode="&#x26;" horiz-adv-x="1308" 
d="M86 348q0 78 24 142.5t70 114t94.5 84.5t116.5 73q-112 175 -112 313q0 134 94.5 222.5t230.5 88.5q129 0 208 -68t79 -190q0 -33 -7 -64.5t-16.5 -56.5t-30 -51t-35.5 -44t-46 -41.5t-48 -35.5t-56 -34.5t-55.5 -31.5t-59.5 -32q58 -82 176 -215q90 -103 182 -198
q100 149 156 331l98 -41q-95 -240 -180 -364q124 -124 264 -250h-160q-78 68 -174 164q-167 -189 -401 -189q-177 0 -294.5 98t-117.5 275zM205 354q0 -133 87.5 -208.5t213.5 -75.5q178 0 323 166q-150 153 -202 219q-121 139 -185 231q-54 -32 -93 -62.5t-73.5 -71
t-52.5 -90t-18 -108.5zM393 1073q0 -110 94 -260q61 32 92.5 50t77.5 50t69 59.5t40.5 67t17.5 84.5q0 82 -50 127t-128 45q-89 0 -151 -63t-62 -160z" />
    <glyph glyph-name="quotesingle" unicode="'" horiz-adv-x="382" 
d="M119 1313q0 31 21 52t53 21q31 0 52 -21t21 -52l-43 -439h-61q-43 412 -43 439z" />
    <glyph glyph-name="parenleft" unicode="(" horiz-adv-x="464" 
d="M92 498q0 489 275 905l63 -45q-109 -223 -163 -417.5t-54 -442.5q0 -247 54 -442t163 -414l-63 -50q-275 416 -275 906z" />
    <glyph glyph-name="parenright" unicode=")" horiz-adv-x="464" 
d="M35 -358q109 219 163 414t54 442q0 248 -54 442.5t-163 417.5l63 45q275 -416 275 -905q0 -490 -275 -906z" />
    <glyph glyph-name="asterisk" unicode="*" horiz-adv-x="686" 
d="M76 993l213 109l-213 108l39 68l200 -131l-10 239h76l-12 -239l202 131l39 -68l-215 -108l215 -109l-39 -67l-202 131l12 -240h-76l10 240l-200 -131z" />
    <glyph glyph-name="plus" unicode="+" horiz-adv-x="1015" 
d="M59 647v86h404v432h92v-432h401v-86h-401v-444h-92v444h-404z" />
    <glyph glyph-name="comma" unicode="," horiz-adv-x="448" 
d="M119 -201q49 33 82.5 87t36.5 102q-15 -2 -21 -2q-37 0 -60.5 24.5t-23.5 61.5q0 36 26 62t62 26q44 0 74.5 -35.5t30.5 -95.5q0 -83 -42.5 -159.5t-105.5 -119.5z" />
    <glyph glyph-name="hyphen" unicode="-" horiz-adv-x="614" 
d="M61 446v99h492v-99h-492z" />
    <glyph glyph-name="period" unicode="." horiz-adv-x="448" 
d="M133 72q0 35 27.5 61.5t64.5 26.5t63.5 -26.5t26.5 -61.5q0 -37 -26.5 -63.5t-63.5 -26.5t-64.5 26.5t-27.5 63.5z" />
    <glyph glyph-name="slash" unicode="/" horiz-adv-x="577" 
d="M0 -41l485 1448h93l-486 -1448h-92z" />
    <glyph glyph-name="zero" unicode="0" horiz-adv-x="1245" 
d="M119 682q0 102 17 199t55.5 189.5t95.5 162t144 111.5t194 42q106 0 192 -42t143 -111.5t95.5 -162t55.5 -189.5t17 -199q0 -83 -12 -165t-37 -162t-66 -148t-95 -120.5t-129.5 -82t-163.5 -29.5q-107 0 -194 42.5t-144 112.5t-96 163.5t-55.5 190.5t-16.5 198zM242 682
q0 -88 11.5 -170.5t40 -162t71.5 -137.5t109.5 -94t150.5 -36q82 0 148.5 36t108.5 94t70.5 137.5t40 162t11.5 170.5q0 89 -11.5 171t-39.5 161t-70 137t-108.5 93.5t-149.5 35.5q-84 0 -150.5 -35.5t-109.5 -93.5t-71 -137t-40 -161t-12 -171z" />
    <glyph glyph-name="one" unicode="1" horiz-adv-x="630" 
d="M53 1049l301 317h107v-1366h-117v1206l-219 -233z" />
    <glyph glyph-name="two" unicode="2" horiz-adv-x="1191" 
d="M115 0v96q115 93 190.5 155.5t165.5 141t146 135t113.5 123.5t89 122t51.5 113.5t20 114.5q0 71 -27 126.5t-72.5 87.5t-99.5 48.5t-112 16.5q-123 0 -220 -48.5t-155 -129.5l-80 74q72 99 191.5 154.5t263.5 55.5q62 0 122 -14t116 -44.5t98.5 -74t68 -109t25.5 -143.5
q0 -63 -20 -128.5t-51.5 -124t-86 -126.5t-108 -124t-134.5 -128.5t-148 -128.5t-165 -135h719v-106h-901z" />
    <glyph glyph-name="three" unicode="3" horiz-adv-x="1114" 
d="M66 203l79 69q60 -86 159 -138t224 -52q159 0 251.5 78t92.5 213q0 72 -28 126.5t-78.5 87t-115.5 48.5t-144 16q-87 0 -127 -4v111q20 -2 127 -2q95 0 171 26t125.5 86.5t49.5 147.5q0 123 -95 193.5t-233 70.5q-114 0 -201 -43t-165 -131l-74 74q77 94 190.5 150
t255.5 56q121 0 220 -41t160 -124t61 -195q0 -60 -19.5 -111.5t-50 -86t-70.5 -60.5t-77.5 -40.5t-75.5 -20.5q48 -5 99.5 -27.5t101 -62t81 -105t31.5 -145.5q0 -173 -123.5 -282.5t-337.5 -109.5q-158 0 -278.5 64t-185.5 164z" />
    <glyph glyph-name="four" unicode="4" horiz-adv-x="1107" 
d="M72 373v104l606 889h158v-887h200v-106h-200v-373h-117v373h-647zM193 479h526v770z" />
    <glyph glyph-name="five" unicode="5" horiz-adv-x="1191" 
d="M152 199l77 77q137 -194 383 -194q148 0 245 94.5t97 235.5q0 153 -95 243t-245 90q-186 0 -331 -133l-88 37v717h788v-106h-672v-535q56 55 141.5 91t184.5 36q87 0 165 -28.5t139 -82t96.5 -137.5t35.5 -188q0 -132 -63 -234t-167 -154.5t-231 -52.5q-304 0 -460 224z
" />
    <glyph glyph-name="six" unicode="6" horiz-adv-x="1196" 
d="M119 682q0 108 18 207.5t58.5 191t99.5 158.5t148 107t198 40q126 0 214 -45.5t155 -128.5l-68 -84q-57 74 -126.5 113t-174.5 39q-106 0 -186.5 -52t-126.5 -140t-68 -190.5t-22 -217.5q0 -44 2 -64q51 83 162 155.5t237 72.5q94 0 173 -27t139 -79.5t94 -136t34 -189.5
q0 -84 -31 -162.5t-87.5 -139.5t-145 -98t-194.5 -37q-133 0 -233 58t-157 159t-84.5 223.5t-27.5 266.5zM246 506q5 -59 19.5 -115.5t44 -113.5t70 -99.5t101.5 -69t135 -26.5q84 0 152 30.5t108.5 79t62.5 105t22 113.5q0 161 -94.5 245t-248.5 84q-111 0 -212 -64.5
t-160 -168.5z" />
    <glyph glyph-name="seven" unicode="7" horiz-adv-x="1028" 
d="M68 1260v106h895v-82l-584 -1284h-129l573 1260h-755z" />
    <glyph glyph-name="eight" unicode="8" 
d="M121 342q0 134 98.5 229t241.5 134q-64 17 -118.5 44.5t-100.5 67.5t-72.5 95.5t-26.5 121.5q0 70 25.5 129t68.5 99.5t100.5 69t120 41.5t128.5 13q65 0 127.5 -13t120 -41.5t100.5 -69t68.5 -99.5t25.5 -129q0 -66 -26 -121.5t-72 -95.5t-100.5 -67.5t-118.5 -44.5
q143 -39 241.5 -134t98.5 -229q0 -163 -132.5 -265t-332.5 -102q-201 0 -333 101t-132 266zM240 350q0 -120 102 -194t244 -74q90 0 168.5 31.5t128 94t49.5 142.5q0 59 -28.5 110t-69.5 83.5t-91 57t-89 35.5t-68 15q-29 -3 -68.5 -14.5t-89.5 -36t-91 -57t-69 -83.5
t-28 -110zM262 1022q0 -54 26.5 -99t63 -72.5t86 -49.5t82.5 -31.5t66 -15.5q33 6 66.5 15.5t82.5 31t85 49.5t62.5 73t26.5 99q0 119 -92 188.5t-231 69.5t-231.5 -69.5t-92.5 -188.5z" />
    <glyph glyph-name="nine" unicode="9" horiz-adv-x="1196" 
d="M117 952q0 84 31 162.5t88 139.5t145 98t194 37q133 0 233 -58t157 -159t84.5 -223.5t27.5 -266.5q0 -108 -17.5 -208t-58 -191.5t-99.5 -158.5t-148 -107t-199 -40q-126 0 -214 45.5t-155 129.5l70 84q57 -74 125.5 -113t173.5 -39q108 0 189 52.5t126 141t66.5 190.5
t21.5 216v64q-51 -84 -162.5 -156t-238.5 -72q-94 0 -173 27t-139 79.5t-94 136t-34 189.5zM236 954q0 -161 94.5 -245t247.5 -84q111 0 212 64.5t160 168.5q-5 59 -19.5 115.5t-43.5 113.5t-69.5 99.5t-102 69t-135.5 26.5q-84 0 -151.5 -30.5t-108.5 -79t-62.5 -105
t-21.5 -113.5z" />
    <glyph glyph-name="colon" unicode=":" horiz-adv-x="444" 
d="M133 72q0 35 27.5 61.5t64.5 26.5t63.5 -26.5t26.5 -61.5q0 -37 -26.5 -63.5t-63.5 -26.5t-64.5 26.5t-27.5 63.5zM133 913q0 37 27.5 64t64.5 27t63.5 -27t26.5 -64q0 -35 -26.5 -61.5t-63.5 -26.5t-64.5 26.5t-27.5 61.5z" />
    <glyph glyph-name="semicolon" unicode=";" horiz-adv-x="448" 
d="M119 -199q49 33 82.5 87t36.5 102q-15 -2 -21 -2q-37 0 -60.5 24.5t-23.5 61.5q0 36 26 62t62 26q44 0 74.5 -35.5t30.5 -97.5q0 -82 -42.5 -158t-105.5 -119zM133 913q0 37 27.5 64t64.5 27t63.5 -27t26.5 -64q0 -35 -26.5 -61.5t-63.5 -26.5t-64.5 26.5t-27.5 61.5z
" />
    <glyph glyph-name="less" unicode="&#x3c;" horiz-adv-x="1015" 
d="M59 647v76l897 465v-101l-788 -403l788 -399v-101z" />
    <glyph glyph-name="equal" unicode="=" horiz-adv-x="1015" 
d="M59 442v84h897v-84h-897zM59 842v86h897v-86h-897z" />
    <glyph glyph-name="greater" unicode="&#x3e;" horiz-adv-x="1015" 
d="M59 184v101l791 399l-791 403v101l897 -465v-76z" />
    <glyph glyph-name="question" unicode="?" horiz-adv-x="950" 
d="M45 1171q157 215 440 215q179 0 285.5 -90.5t106.5 -224.5q0 -64 -23 -118t-60 -92t-81.5 -71.5t-89 -63.5t-81.5 -60t-60 -68.5t-23 -81.5q0 -24 16.5 -53.5t44.5 -50.5l-82 -52q-84 70 -84 162q0 54 22 100.5t57.5 79.5t78 64t85 61t78 62t57.5 75.5t22 94.5
q0 94 -72.5 157.5t-202.5 63.5q-125 0 -209 -47t-151 -137zM367 72q0 35 26.5 61.5t63.5 26.5t63.5 -26.5t26.5 -61.5q0 -37 -26.5 -63.5t-63.5 -26.5t-63.5 26.5t-26.5 63.5z" />
    <glyph glyph-name="at" unicode="@" horiz-adv-x="1603" 
d="M72 500q0 163 67.5 313t179 257.5t260.5 172t306 64.5q188 0 336.5 -88.5t228.5 -238.5t80 -333q0 -112 -28 -203.5t-74.5 -149.5t-105.5 -89t-124 -31q-80 0 -129 51.5t-51 122.5l-2 12q-58 -80 -148 -133t-188 -53q-141 0 -227 89.5t-86 238.5q0 107 42 205
t110.5 166.5t157 109.5t179.5 41q97 0 165.5 -48t100.5 -122l27 133h100l-121 -577q-4 -24 -4 -39q0 -52 30 -82.5t73 -30.5q26 0 55.5 11t62.5 40t59 71t43 112t17 157q0 168 -73 302.5t-207 212t-305 77.5q-146 0 -283.5 -62t-237.5 -163t-160.5 -236.5t-60.5 -277.5
q0 -163 76 -296t212 -209.5t304 -76.5q197 0 383 117l35 -51q-200 -129 -426 -129q-183 0 -332 85t-233 232t-84 326zM473 506q0 -108 61 -177t166 -69t191 59.5t145 145.5l66 303q-23 66 -82.5 118t-151.5 52q-106 0 -198 -62t-144.5 -161.5t-52.5 -208.5z" />
    <glyph glyph-name="A" unicode="A" horiz-adv-x="1325" 
d="M31 0l559 1366h145l559 -1366h-135l-135 336h-723l-135 -336h-135zM340 442h645l-321 799z" />
    <glyph glyph-name="B" unicode="B" horiz-adv-x="1259" 
d="M170 0v1366h561q172 0 274.5 -93.5t102.5 -254.5q0 -123 -71 -208t-169 -105q109 -17 188 -116t79 -220q0 -171 -105 -270t-287 -99h-573zM287 106h438q134 0 210.5 73t76.5 198q0 112 -76 191t-211 79h-438v-541zM287 754h430q127 0 197.5 71t70.5 181
q0 109 -70.5 181.5t-197.5 72.5h-430v-506z" />
    <glyph glyph-name="C" unicode="C" horiz-adv-x="1374" 
d="M119 682q0 154 54 287t147 224.5t220 143.5t271 52q306 0 498 -242l-99 -64q-66 91 -172 145t-227 54q-119 0 -223.5 -44t-181 -122t-120.5 -190.5t-44 -243.5q0 -173 75.5 -310.5t205.5 -213.5t288 -76q121 0 227 54t172 145l101 -62q-200 -244 -500 -244
q-144 0 -271 52t-220 143.5t-147 224.5t-54 287z" />
    <glyph glyph-name="D" unicode="D" horiz-adv-x="1417" 
d="M170 0v1366h436q155 0 286 -54t218.5 -147t136.5 -218t49 -265q0 -142 -49 -266.5t-136.5 -216.5t-218.5 -145.5t-286 -53.5h-436zM287 106h319q132 0 240 45t179.5 123.5t110 183t38.5 224.5q0 161 -65.5 291t-196 208.5t-306.5 78.5h-319v-1154z" />
    <glyph glyph-name="E" unicode="E" horiz-adv-x="1155" 
d="M170 0v1366h866v-106h-749v-506h735v-107h-735v-541h749v-106h-866z" />
    <glyph glyph-name="F" unicode="F" horiz-adv-x="1110" 
d="M170 0v1366h866v-106h-749v-506h735v-107h-735v-647h-117z" />
    <glyph glyph-name="G" unicode="G" horiz-adv-x="1456" 
d="M119 682q0 155 54 288t147.5 224.5t220.5 143t270 51.5q309 0 514 -234l-88 -63q-73 88 -185.5 139t-240.5 51q-119 0 -223.5 -44t-181 -122t-120.5 -190.5t-44 -243.5q0 -173 75.5 -311t205.5 -214.5t288 -76.5q115 0 207.5 40t153 109.5t96.5 156t47 187.5h-619v107
h746q0 -153 -42 -282t-121 -224t-200.5 -148t-273.5 -53q-141 0 -267 52t-218.5 143.5t-146.5 225t-54 288.5z" />
    <glyph glyph-name="H" unicode="H" horiz-adv-x="1439" 
d="M170 0v1366h117v-610h866v610h117v-1366h-117v649h-866v-649h-117z" />
    <glyph glyph-name="I" unicode="I" horiz-adv-x="456" 
d="M170 0v1366h117v-1366h-117z" />
    <glyph glyph-name="J" unicode="J" horiz-adv-x="962" 
d="M29 143l71 90q112 -151 273 -151q138 0 220.5 87t82.5 226v971h117v-971q0 -204 -117 -312t-297 -108q-221 0 -350 168z" />
    <glyph glyph-name="K" unicode="K" horiz-adv-x="1200" 
d="M170 0v1366h117v-748l659 748h150l-582 -651l637 -715h-150l-563 643l-151 -166v-477h-117z" />
    <glyph glyph-name="L" unicode="L" horiz-adv-x="991" 
d="M141 0v1366h119v-1260h662v-106h-781z" />
    <glyph glyph-name="M" unicode="M" horiz-adv-x="1617" 
d="M170 0v1366h174l465 -1137l463 1137h176v-1366h-119v1219l-498 -1219h-45l-499 1219v-1219h-117z" />
    <glyph glyph-name="N" unicode="N" horiz-adv-x="1431" 
d="M170 0v1366h119l856 -1157v1157h117v-1366h-115l-860 1174v-1174h-117z" />
    <glyph glyph-name="O" unicode="O" horiz-adv-x="1564" 
d="M119 682q0 149 47.5 279t133 224.5t210.5 149t272 54.5q195 0 347.5 -93.5t234.5 -254t82 -359.5t-82 -359.5t-234.5 -254t-347.5 -93.5q-147 0 -272 54.5t-210.5 149t-133 224.5t-47.5 279zM242 682q0 -172 65.5 -307.5t189 -214t285.5 -78.5q161 0 285 78t190 214.5
t66 307.5q0 172 -66 308.5t-190 214t-285 77.5q-244 0 -392 -168.5t-148 -431.5z" />
    <glyph glyph-name="P" unicode="P" 
d="M170 0v1366h512q127 0 222 -55.5t142.5 -145t47.5 -198.5q0 -168 -112 -284t-300 -116h-395v-567h-117zM287 674h383q135 0 218 82t83 211q0 130 -82.5 211.5t-218.5 81.5h-383v-586z" />
    <glyph glyph-name="Q" unicode="Q" horiz-adv-x="1564" 
d="M119 682q0 149 47.5 279t133 224.5t210.5 149t272 54.5q195 0 347.5 -93.5t234.5 -254t82 -359.5q0 -153 -51 -285.5t-144 -228.5l144 -150l-80 -73l-146 149q-163 -119 -387 -119q-147 0 -272 54.5t-210.5 149t-133 224.5t-47.5 279zM242 682q0 -172 65.5 -307.5
t189 -214t285.5 -78.5q176 0 310 94l-211 219l82 76l211 -221q149 173 149 432q0 172 -66 308.5t-190 214t-285 77.5q-244 0 -392 -168.5t-148 -431.5z" />
    <glyph glyph-name="R" unicode="R" horiz-adv-x="1216" 
d="M170 0v1366h510q181 0 298.5 -108t117.5 -291q0 -120 -52.5 -209.5t-137 -135t-189.5 -49.5l395 -573h-141l-383 565h-301v-565h-117zM287 672h383q136 0 219.5 82.5t83.5 212.5t-83.5 211.5t-219.5 81.5h-383v-588z" />
    <glyph glyph-name="S" unicode="S" horiz-adv-x="1189" 
d="M94 193l76 88q76 -86 184 -142.5t244 -56.5q99 0 172.5 25.5t112 67.5t56 86.5t17.5 92.5q0 64 -28 112.5t-75.5 79t-109 54t-129.5 42t-135.5 38.5t-129 48t-109 65t-75.5 96t-28 135q0 109 60.5 193t162.5 128t226 44q297 0 463 -193l-78 -86q-142 172 -391 172
q-137 0 -228.5 -71t-91.5 -181q0 -56 28 -98t75.5 -69t109 -48t129.5 -40t135.5 -39.5t129 -51.5t109 -72t75.5 -104.5t28 -145.5q0 -56 -14.5 -108t-50.5 -104t-89.5 -90t-138.5 -61.5t-192 -23.5q-161 0 -289 59.5t-211 158.5z" />
    <glyph glyph-name="T" unicode="T" horiz-adv-x="1155" 
d="M72 1260v106h1011v-106h-446v-1260h-119v1260h-446z" />
    <glyph glyph-name="U" unicode="U" horiz-adv-x="1404" 
d="M170 524v842h119v-840q0 -209 107 -326.5t306 -117.5t306.5 117.5t107.5 326.5v840h119v-842q0 -258 -136.5 -403.5t-396.5 -145.5q-258 0 -395 146t-137 403z" />
    <glyph glyph-name="V" unicode="V" horiz-adv-x="1325" 
d="M31 1366h135l498 -1235l495 1235h135l-559 -1366h-145z" />
    <glyph glyph-name="W" unicode="W" horiz-adv-x="1775" 
d="M39 1366h131l330 -1202l336 1202h106l334 -1202l330 1202h131l-389 -1366h-131l-328 1174l-328 -1174h-131z" />
    <glyph glyph-name="X" unicode="X" horiz-adv-x="1320" 
d="M39 0l549 700l-518 666h147l442 -580l445 580h147l-518 -664l549 -702h-145l-478 616l-475 -616h-145z" />
    <glyph glyph-name="Y" unicode="Y" horiz-adv-x="1265" 
d="M31 1366h141l461 -672l461 672h141l-543 -782v-584h-119v584z" />
    <glyph glyph-name="Z" unicode="Z" horiz-adv-x="1189" 
d="M102 0v102l824 1158h-824v106h971v-100l-823 -1160h837v-106h-985z" />
    <glyph glyph-name="bracketleft" unicode="[" horiz-adv-x="466" 
d="M76 -389v1778h356v-89h-266v-1601h266v-88h-356z" />
    <glyph glyph-name="backslash" unicode="\" horiz-adv-x="577" 
d="M0 1407h92l486 -1448h-93z" />
    <glyph glyph-name="bracketright" unicode="]" horiz-adv-x="466" 
d="M35 -301h266v1601h-266v89h356v-1778h-356v88z" />
    <glyph glyph-name="asciicircum" unicode="^" horiz-adv-x="876" 
d="M39 682l356 684h86l357 -684h-99l-301 600l-301 -600h-98z" />
    <glyph glyph-name="underscore" unicode="_" horiz-adv-x="1155" 
d="M-6 -82h1167v-88h-1167v88z" />
    <glyph glyph-name="grave" unicode="`" horiz-adv-x="442" 
d="M0 1434h127l315 -295h-90z" />
    <glyph glyph-name="a" unicode="a" 
d="M111 494q0 234 121.5 377t318.5 143q104 0 193.5 -49t150.5 -136v160h109v-989h-109v158q-55 -80 -146.5 -131.5t-197.5 -51.5q-198 0 -319 141.5t-121 377.5zM223 494q0 -185 93 -303.5t253 -118.5q101 0 191 51t135 125v489q-45 75 -135.5 128t-190.5 53
q-160 0 -253 -119.5t-93 -304.5z" />
    <glyph glyph-name="b" unicode="b" 
d="M166 0v1366h106v-537q61 86 151 135.5t193 49.5q198 0 320.5 -143t122.5 -377q0 -236 -122.5 -377.5t-320.5 -141.5q-106 0 -197.5 51.5t-146.5 131.5v-158h-106zM272 248q45 -73 136 -124.5t190 -51.5q162 0 254 118.5t92 303.5q0 186 -92.5 305t-253.5 119
q-99 0 -190 -53.5t-136 -127.5v-489z" />
    <glyph glyph-name="c" unicode="c" horiz-adv-x="1011" 
d="M111 496q0 221 132.5 369.5t346.5 148.5q121 0 202.5 -43t147.5 -125l-74 -66q-101 138 -270 138q-170 0 -271.5 -119.5t-101.5 -302.5t102 -303.5t271 -120.5q168 0 270 139l74 -66q-65 -83 -146.5 -126.5t-203.5 -43.5q-107 0 -197.5 41t-151.5 111t-95.5 165.5
t-34.5 203.5z" />
    <glyph glyph-name="d" unicode="d" 
d="M111 494q0 234 121.5 377t318.5 143q104 0 194.5 -49.5t149.5 -135.5v537h109v-1366h-109v158q-55 -80 -146.5 -131.5t-197.5 -51.5q-198 0 -319 141.5t-121 377.5zM223 494q0 -185 93 -303.5t253 -118.5q101 0 191 51t135 125v489q-45 76 -135.5 128.5t-190.5 52.5
q-160 0 -253 -119.5t-93 -304.5z" />
    <glyph glyph-name="e" unicode="e" horiz-adv-x="1161" 
d="M111 496q0 142 61 260.5t170.5 188t243.5 69.5q146 0 253.5 -72t160.5 -189.5t53 -263.5v-28h-828q8 -167 113 -280t274 -113q196 0 324 137l55 -70q-154 -160 -387 -160q-217 0 -355 146t-138 375zM225 545h719q-1 66 -23 130.5t-64 120.5t-113 91t-160 35
q-84 0 -153 -34.5t-111.5 -90t-67 -120.5t-27.5 -132z" />
    <glyph glyph-name="f" unicode="f" horiz-adv-x="542" 
d="M37 895v94h164v90q0 145 72 226t196 81q82 0 133 -30l-33 -88q-39 22 -90 22q-84 0 -127 -55t-43 -156v-90h201v-94h-201v-895h-108v895h-164z" />
    <glyph glyph-name="g" unicode="g" horiz-adv-x="1167" 
d="M111 496q0 234 121.5 376t318.5 142q104 0 193.5 -49t150.5 -136v160h109v-981q0 -109 -35 -190t-98 -128t-140.5 -69t-171.5 -22q-132 0 -219 31.5t-172 117.5l61 86q64 -76 140 -107.5t190 -31.5q93 0 166.5 30.5t121.5 103t48 179.5v158q-56 -81 -147.5 -133.5
t-196.5 -52.5q-198 0 -319 140t-121 376zM223 496q0 -185 92.5 -302.5t253.5 -117.5q99 0 190 52.5t136 127.5v481q-45 75 -136 128t-190 53q-160 0 -253 -118.5t-93 -303.5z" />
    <glyph glyph-name="h" unicode="h" horiz-adv-x="1105" 
d="M166 0v1366h106v-526q59 70 157.5 122t199.5 52q154 0 232.5 -77t78.5 -241v-696h-106v674q0 135 -62 189.5t-178 54.5q-92 0 -182.5 -50t-139.5 -120v-748h-106z" />
    <glyph glyph-name="i" unicode="i" horiz-adv-x="438" 
d="M137 1227q0 33 24.5 56.5t57.5 23.5q34 0 58 -23t24 -57t-24 -58t-58 -24q-33 0 -57.5 24.5t-24.5 57.5zM166 0v989h106v-989h-106z" />
    <glyph glyph-name="j" unicode="j" horiz-adv-x="438" 
d="M-199 -326l47 88q67 -67 146 -67q77 0 124.5 44.5t47.5 135.5v1114h106v-1114q0 -136 -69.5 -206t-198.5 -70q-64 0 -110.5 18t-92.5 57zM137 1227q0 33 24.5 56.5t57.5 23.5q34 0 58 -23t24 -57t-24 -58t-58 -24q-33 0 -57.5 24.5t-24.5 57.5z" />
    <glyph glyph-name="k" unicode="k" horiz-adv-x="1034" 
d="M166 0v1366h106v-942l582 565h143l-460 -446l458 -543h-143l-395 471l-185 -174v-297h-106z" />
    <glyph glyph-name="l" unicode="l" horiz-adv-x="524" 
d="M166 190v1176h106v-1159q0 -62 26 -98.5t77 -36.5q67 0 110 47l41 -82q-65 -62 -168 -62q-95 0 -143.5 56t-48.5 159z" />
    <glyph glyph-name="m" unicode="m" horiz-adv-x="1615" 
d="M166 0v989h106v-149q38 58 130.5 116t189.5 58q108 0 173.5 -53.5t86.5 -133.5q44 74 136.5 130.5t191.5 56.5q270 0 270 -301v-713h-107v692q0 226 -198 226q-78 0 -159.5 -49.5t-123.5 -118.5v-750h-108v692q0 226 -197 226q-77 0 -158 -50t-127 -120v-748h-106z" />
    <glyph glyph-name="n" unicode="n" horiz-adv-x="1105" 
d="M166 0v989h106v-149q59 70 157.5 122t199.5 52q311 0 311 -322v-692h-106v670q0 135 -62 191.5t-178 56.5q-92 0 -182.5 -50t-139.5 -120v-748h-106z" />
    <glyph glyph-name="o" unicode="o" 
d="M111 496q0 222 130.5 370t342.5 148q143 0 252.5 -69.5t167 -186.5t57.5 -262t-57.5 -263t-167 -188t-252.5 -70q-141 0 -250 70t-166 188t-57 263zM223 496q0 -112 41.5 -207.5t125.5 -156t194 -60.5q112 0 196 60.5t125 155.5t41 208q0 112 -41 206.5t-125 155
t-196 60.5q-110 0 -194 -60.5t-125.5 -155t-41.5 -206.5z" />
    <glyph glyph-name="p" unicode="p" horiz-adv-x="1161" 
d="M166 -377v1366h106v-155q55 79 146.5 129.5t197.5 50.5q199 0 321 -141t122 -377q0 -235 -122 -378t-321 -143q-103 0 -193 49.5t-151 135.5v-537h-106zM272 252q45 -74 136 -127t190 -53q161 0 253.5 119t92.5 305q0 185 -92 303.5t-254 118.5q-99 0 -190 -51.5
t-136 -125.5v-489z" />
    <glyph glyph-name="q" unicode="q" horiz-adv-x="1161" 
d="M102 496q0 236 122 377t321 141q106 0 197.5 -50.5t146.5 -129.5v155h106v-1366h-106v537q-61 -86 -151 -135.5t-193 -49.5q-199 0 -321 143t-122 378zM217 496q0 -186 92.5 -305t253.5 -119q99 0 190 53t136 127v489q-45 74 -136 125.5t-190 51.5q-162 0 -254 -118.5
t-92 -303.5z" />
    <glyph glyph-name="r" unicode="r" horiz-adv-x="649" 
d="M166 0v989h106v-170q145 191 334 191v-117q-18 4 -53 4q-74 0 -160.5 -55t-120.5 -121v-721h-106z" />
    <glyph glyph-name="s" unicode="s" horiz-adv-x="940" 
d="M80 133l63 78q50 -63 135 -104t185 -41q122 0 193 56t71 144q0 54 -34.5 92t-89.5 58.5t-122 36.5t-133.5 36t-121.5 47.5t-89.5 79t-34.5 123.5q0 118 95.5 196.5t257.5 78.5q223 0 354 -146l-59 -75q-44 60 -121.5 95.5t-173.5 35.5q-113 0 -179.5 -51t-66.5 -130
q0 -50 34.5 -84t89 -53t121 -34.5t133 -36.5t121 -51t89 -85.5t34.5 -132.5q0 -127 -96 -209t-274 -82q-242 0 -381 158z" />
    <glyph glyph-name="t" unicode="t" horiz-adv-x="563" 
d="M23 895v94h163v271h109v-271h201v-94h-201v-688q0 -62 25.5 -98.5t76.5 -36.5q68 0 111 47l41 -82q-65 -62 -168 -62q-97 0 -146 56t-49 159v705h-163z" />
    <glyph glyph-name="u" unicode="u" horiz-adv-x="1105" 
d="M166 293v696h106v-672q0 -136 61.5 -190.5t178.5 -54.5q92 0 181 47.5t141 116.5v753h106v-989h-106v145q-65 -73 -160.5 -121.5t-196.5 -48.5q-154 0 -232.5 77t-78.5 241z" />
    <glyph glyph-name="v" unicode="v" horiz-adv-x="985" 
d="M14 989h119l361 -864l356 864h121l-418 -989h-121z" />
    <glyph glyph-name="w" unicode="w" horiz-adv-x="1472" 
d="M35 989h115l262 -839l278 839h92l279 -839l262 839h115l-322 -989h-102l-277 846l-278 -846h-103z" />
    <glyph glyph-name="x" unicode="x" horiz-adv-x="980" 
d="M35 0l391 508l-369 481h127l308 -407l305 407h127l-369 -481l391 -508h-127l-327 436l-330 -436h-127z" />
    <glyph glyph-name="y" unicode="y" horiz-adv-x="1105" 
d="M154 -252l63 86q107 -139 301 -139q148 0 232 82t84 231v148q-65 -73 -160.5 -121.5t-196.5 -48.5q-154 0 -232.5 76.5t-78.5 240.5v686h106v-663q0 -135 62 -189.5t178 -54.5q92 0 181 47.5t141 116.5v743h106v-981q0 -85 -23.5 -154.5t-63 -116t-94 -78.5t-115 -46
t-126.5 -14q-120 0 -205.5 36.5t-158.5 112.5z" />
    <glyph glyph-name="z" unicode="z" horiz-adv-x="960" 
d="M115 0v88l585 807h-585v94h723v-86l-592 -809h600v-94h-731z" />
    <glyph glyph-name="braceleft" unicode="{" horiz-adv-x="509" 
d="M12 459v82q51 0 79 42t28 103v449q0 111 69 182.5t160 71.5h127v-89h-127q-57 0 -98 -46.5t-41 -118.5v-455q0 -141 -92 -180q92 -39 92 -181v-454q0 -71 41 -118.5t98 -47.5h127v-88h-127q-91 0 -160 71t-69 183v448q0 61 -28 103.5t-79 42.5z" />
    <glyph glyph-name="bar" unicode="|" horiz-adv-x="425" 
d="M170 -41v1448h88v-1448h-88z" />
    <glyph glyph-name="braceright" unicode="}" horiz-adv-x="509" 
d="M35 -301h127q56 0 96.5 47.5t40.5 118.5v454q0 141 92 181q-92 40 -92 180v455q0 72 -40 118.5t-97 46.5h-127v89h127q91 0 160 -71.5t69 -182.5v-449q0 -61 28 -103t79 -42v-82q-51 0 -79 -42.5t-28 -103.5v-448q0 -112 -69 -183t-160 -71h-127v88z" />
    <glyph glyph-name="asciitilde" unicode="~" horiz-adv-x="1021" 
d="M57 887q7 80 19 145t33 128.5t50 106.5t72.5 69t98.5 26q51 0 90 -22.5t62.5 -58t41.5 -78.5t33 -86t31.5 -78.5t42.5 -58t61 -22.5q79 0 123 104t64 304l88 -10q-8 -82 -19.5 -146t-32.5 -129t-50 -107.5t-73 -69.5t-100 -27q-51 0 -90 22t-62 57.5t-41 78t-33 85.5
t-32 78.5t-43 57.5t-61 22q-79 0 -123 -104t-62 -302z" />
    <glyph glyph-name="uni00A0" unicode="&#xa0;" horiz-adv-x="530" 
 />
    <glyph glyph-name="exclamdown" unicode="&#xa1;" horiz-adv-x="448" 
d="M133 920q0 35 26.5 61.5t63.5 26.5t63.5 -26.5t26.5 -61.5q0 -37 -26.5 -64t-63.5 -27t-63.5 27t-26.5 64zM156 -377l26 1010h84l27 -1010h-137z" />
    <glyph glyph-name="cent" unicode="&#xa2;" horiz-adv-x="1011" 
d="M111 496q0 203 113.5 347t301.5 167v147h90v-143q110 -4 185.5 -47t138.5 -121l-74 -66q-95 129 -250 138v-846q152 6 250 139l74 -66q-62 -80 -138 -123t-186 -47v-180h-90v185q-188 23 -301.5 167.5t-113.5 348.5zM223 496q0 -163 81.5 -278.5t221.5 -139.5v833
q-141 -26 -222 -139.5t-81 -275.5z" />
    <glyph glyph-name="sterling" unicode="&#xa3;" horiz-adv-x="1032" 
d="M37 547v86h256q-7 8 -42 45.5t-46.5 51.5t-37 50.5t-36 63t-20 67t-9.5 82.5q0 161 127.5 277t315.5 116q126 0 229.5 -59t155.5 -162l-94 -59q-30 71 -108 124.5t-175 53.5q-137 0 -231.5 -79.5t-94.5 -213.5q0 -60 21.5 -115.5t45 -87t67 -82t61.5 -73.5h309v-86h-258
q21 -58 21 -109q0 -95 -44 -162t-122 -124q52 18 110 18q57 0 110.5 -22.5t104.5 -45t101 -22.5q64 0 121.5 26.5t82.5 57.5l56 -96q-101 -97 -264 -97q-62 0 -112 15t-78.5 33.5t-74.5 33.5t-102 15q-85 0 -242 -82l-45 98q142 62 216.5 150t74.5 188q0 57 -33 125h-317z
" />
    <glyph glyph-name="yen" unicode="&#xa5;" horiz-adv-x="1265" 
d="M31 1366h141l461 -672l461 672h141l-483 -696h471v-86h-531v-242h531v-84h-531v-258h-119v258h-528v84h528v242h-528v86h469z" />
    <glyph glyph-name="brokenbar" unicode="&#xa6;" horiz-adv-x="425" 
d="M170 -41v647h88v-647h-88zM170 760v647h88v-647h-88z" />
    <glyph glyph-name="section" unicode="&#xa7;" horiz-adv-x="944" 
d="M80 -8l63 74q51 -64 131 -106t187 -42q119 0 192.5 55.5t73.5 149.5q0 56 -34.5 94.5t-89.5 60t-122 38t-133.5 36.5t-121.5 48t-89.5 79t-34.5 123q0 104 70 170.5t182 93.5q-123 37 -187.5 94.5t-64.5 155.5q0 114 94 192t259 78q230 0 352 -147l-57 -68
q-51 65 -129 98.5t-164 33.5q-109 0 -178.5 -52t-69.5 -137q0 -51 34.5 -85.5t89 -53.5t121 -34t133 -35.5t121 -50t89 -85.5t34.5 -135q0 -178 -196 -260q96 -36 146 -94.5t50 -153.5q0 -137 -101.5 -215t-268.5 -78q-136 0 -223 41.5t-158 116.5zM209 608q0 -36 18 -64.5
t42.5 -46.5t71 -35.5t82 -27t95.5 -24.5l6 -1.5t5 -1t6 -1.5q94 40 142 93.5t48 129.5q0 38 -16 69t-38.5 51t-60 37.5t-67.5 27t-74 20.5q-144 -36 -202 -91.5t-58 -134.5z" />
    <glyph glyph-name="dieresis" unicode="&#xa8;" horiz-adv-x="536" 
d="M-16 1231q0 31 22 53.5t53 22.5t53.5 -22.5t22.5 -53.5t-22.5 -53.5t-53.5 -22.5t-53 22.5t-22 53.5zM401 1231q0 31 22.5 53.5t53.5 22.5t53.5 -22.5t22.5 -53.5t-22.5 -53.5t-53.5 -22.5t-53.5 22.5t-22.5 53.5z" />
    <glyph glyph-name="copyright" unicode="&#xa9;" horiz-adv-x="1593" 
d="M90 684q0 192 95 355t258 257.5t354 94.5q144 0 275 -56t225 -150.5t150 -225.5t56 -275q0 -143 -56 -274t-150 -226t-225 -151t-275 -56q-191 0 -354 95t-258 258t-95 354zM147 684q0 -175 87.5 -324.5t237.5 -237t325 -87.5q176 0 325.5 87.5t236.5 237t87 324.5
q0 176 -87 325.5t-236.5 236.5t-325.5 87q-131 0 -251.5 -51.5t-207.5 -138.5t-139 -207t-52 -252zM373 688q0 186 124 311t302 125q183 0 297 -133l-45 -45q-39 53 -109 85t-143 32q-146 0 -252.5 -106t-106.5 -271q0 -161 107.5 -270t251.5 -109q74 0 143 32.5t109 86.5
l45 -45q-116 -135 -297 -135q-178 0 -302 127.5t-124 314.5z" />
    <glyph glyph-name="ordfeminine" unicode="&#xaa;" horiz-adv-x="768" 
d="M94 866q0 99 68.5 155t161.5 56q138 0 225 -90v125q0 67 -51 105t-123 38q-128 0 -205 -98l-45 57q104 113 260 113q111 0 180.5 -53t69.5 -162v-444h-86v75q-86 -92 -225 -92q-92 0 -161 58.5t-69 156.5zM182 866q0 -67 48.5 -110t125.5 -43q58 0 109.5 22.5t83.5 63.5
v133q-32 40 -83.5 62t-109.5 22q-76 0 -125 -42.5t-49 -107.5z" />
    <glyph glyph-name="guillemotleft" unicode="&#xab;" horiz-adv-x="823" 
d="M61 498l328 362h117l-328 -362l328 -369h-117zM317 498l328 362h117l-328 -362l328 -369h-117z" />
    <glyph glyph-name="logicalnot" unicode="&#xac;" horiz-adv-x="1021" 
d="M59 842v86h897v-486h-88v400h-809z" />
    <glyph glyph-name="uni00AD" unicode="&#xad;" horiz-adv-x="614" 
d="M61 446v99h492v-99h-492z" />
    <glyph glyph-name="registered" unicode="&#xae;" horiz-adv-x="1011" 
d="M72 952q0 181 127 307.5t307 126.5q119 0 219 -57.5t157.5 -157.5t57.5 -219q0 -180 -126.5 -307t-307.5 -127q-180 0 -307 127t-127 307zM127 952q0 -156 111.5 -267.5t267.5 -111.5t267.5 111.5t111.5 267.5q0 158 -111 268.5t-268 110.5t-268 -110.5t-111 -268.5z
M342 702v498h203q65 0 109 -42t44 -109q0 -72 -46 -110t-81 -38l134 -199h-78l-129 197h-95v-197h-61zM403 958h142q34 0 62 27t28 64q0 40 -28 67t-62 27h-142v-185z" />
    <glyph glyph-name="macron" unicode="&#xaf;" horiz-adv-x="743" 
d="M0 1210v78h743v-78h-743z" />
    <glyph glyph-name="degree" unicode="&#xb0;" horiz-adv-x="577" 
d="M51 1147q0 99 69 169t167 70q99 0 169 -70t70 -169q0 -98 -69.5 -167t-169.5 -69q-98 0 -167 69t-69 167zM131 1147q0 -65 45.5 -110.5t110.5 -45.5q66 0 112.5 45.5t46.5 110.5q0 66 -46.5 113t-112.5 47q-64 0 -110 -47t-46 -113z" />
    <glyph glyph-name="plusminus" unicode="&#xb1;" horiz-adv-x="1015" 
d="M59 0v84h897v-84h-897zM59 662v83h404v435h92v-435h401v-83h-401v-447h-92v447h-404z" />
    <glyph glyph-name="uni00B2" unicode="&#xb2;" horiz-adv-x="786" 
d="M106 862v72q250 179 366 296.5t116 223.5q0 82 -56 122t-135 40q-75 0 -136 -29.5t-95 -77.5l-55 58q47 61 123.5 94t164.5 33q71 0 132 -23t104 -78t43 -135q0 -64 -32 -129.5t-96.5 -132t-134.5 -124.5t-173 -132h440v-78h-576z" />
    <glyph glyph-name="uni00B3" unicode="&#xb3;" horiz-adv-x="786" 
d="M94 981l53 57q39 -52 102 -82t138 -30q95 0 150 42.5t55 116.5q0 83 -62.5 122.5t-162.5 39.5q-66 0 -78 -2v78q14 -2 78 -2q95 0 154 36t59 113q0 68 -57 107t-140 39q-134 0 -227 -103l-52 56q47 56 120 90.5t165 34.5q122 0 202.5 -58.5t80.5 -158.5q0 -44 -18 -80.5
t-46.5 -58.5t-58.5 -35t-60 -17q30 -2 62.5 -15.5t63.5 -37t51 -63t20 -87.5q0 -104 -80.5 -169.5t-216.5 -65.5q-101 0 -178.5 37t-116.5 96z" />
    <glyph glyph-name="acute" unicode="&#xb4;" horiz-adv-x="442" 
d="M0 1139l315 295h127l-352 -295h-90z" />
    <glyph glyph-name="uni00B5" unicode="&#xb5;" horiz-adv-x="1105" 
d="M166 -377v1366h106v-672q0 -137 62 -193t178 -56q91 0 180.5 49t141.5 119v753h106v-989h-106v145q-65 -73 -160.5 -121.5t-196.5 -48.5q-129 0 -205 52v-404h-106z" />
    <glyph glyph-name="paragraph" unicode="&#xb6;" horiz-adv-x="919" 
d="M55 1014q0 146 103.5 249t249.5 103h346v-1571h-78v1493h-191v-1493h-77v867q-146 0 -249.5 103t-103.5 249z" />
    <glyph glyph-name="periodcentered" unicode="&#xb7;" horiz-adv-x="448" 
d="M135 502q0 35 26.5 61.5t63.5 26.5t63.5 -26.5t26.5 -61.5q0 -37 -26.5 -63.5t-63.5 -26.5t-63.5 26.5t-26.5 63.5z" />
    <glyph glyph-name="cedilla" unicode="&#xb8;" horiz-adv-x="405" 
d="M0 -328l35 66q68 -57 162 -57q56 0 94.5 25t38.5 67q0 38 -21 60t-61 22q-52 0 -84 -37l-55 32l61 173h78l-53 -138q33 23 75 23q60 0 98 -37t38 -98q0 -71 -59.5 -115.5t-147.5 -44.5q-60 0 -114.5 16.5t-84.5 42.5z" />
    <glyph glyph-name="uni00B9" unicode="&#xb9;" horiz-adv-x="438" 
d="M35 1479l198 202h82v-819h-94v699l-131 -142z" />
    <glyph glyph-name="ordmasculine" unicode="&#xba;" horiz-adv-x="829" 
d="M90 989q0 144 90 241t234 97q146 0 235.5 -97t89.5 -241q0 -143 -89.5 -240.5t-235.5 -97.5q-143 0 -233.5 97.5t-90.5 240.5zM182 989q0 -111 62.5 -186.5t169.5 -75.5q109 0 172 75t63 187q0 111 -63 185.5t-172 74.5q-107 0 -169.5 -74.5t-62.5 -185.5z" />
    <glyph glyph-name="guillemotright" unicode="&#xbb;" horiz-adv-x="823" 
d="M61 129l328 369l-328 362h117l328 -362l-328 -369h-117zM317 129l328 369l-328 362h117l328 -362l-328 -369h-117z" />
    <glyph glyph-name="onequarter" unicode="&#xbc;" horiz-adv-x="1519" 
d="M35 1163l198 203h82v-819h-94v698l-131 -141zM197 0l872 1366h94l-874 -1366h-92zM821 219v72l367 528h125v-524h123v-76h-123v-219h-90v219h-402zM915 295h308v440z" />
    <glyph glyph-name="onehalf" unicode="&#xbd;" horiz-adv-x="1599" 
d="M35 1163l198 203h82v-819h-94v698l-131 -141zM197 0l872 1366h94l-874 -1366h-92zM920 0v72q123 88 202.5 151.5t147.5 130t99.5 124.5t31.5 114q0 82 -56 122t-135 40q-75 0 -136 -29.5t-95 -77.5l-55 58q46 60 123 93t165 33q52 0 100 -13.5t89 -40.5t65.5 -74
t24.5 -107q0 -64 -32 -129.5t-96.5 -132t-134.5 -124.5t-173 -132h440v-78h-575z" />
    <glyph glyph-name="threequarters" unicode="&#xbe;" horiz-adv-x="1759" 
d="M94 666l53 57q39 -52 102 -82.5t138 -30.5q95 0 150 43t55 117q0 83 -62.5 122.5t-162.5 39.5q-66 0 -78 -2v78q14 -2 78 -2q95 0 154 36t59 113q0 68 -56.5 106.5t-140.5 38.5q-135 0 -227 -102l-52 55q47 56 120 90.5t165 34.5q122 0 202.5 -58.5t80.5 -158.5
q0 -44 -18 -80.5t-46.5 -58t-58.5 -34.5t-60 -17q30 -2 62.5 -15.5t63.5 -37t51 -63t20 -87.5q0 -104 -80.5 -170t-216.5 -66q-101 0 -178.5 37.5t-116.5 96.5zM436 0l873 1366h94l-875 -1366h-92zM1061 219v72l366 528h125v-524h123v-76h-123v-219h-90v219h-401zM1155 295
h307v440z" />
    <glyph glyph-name="questiondown" unicode="&#xbf;" horiz-adv-x="802" 
d="M74 -86q0 64 23 118t60 92t81.5 71.5t89 63.5t81.5 60t60 68.5t23 81.5q0 25 -16.5 53t-45.5 49l82 52q86 -69 86 -162q0 -54 -22 -100.5t-57.5 -79.5t-78 -64t-85.5 -61t-78.5 -62t-57.5 -75.5t-22 -94.5q0 -94 73 -156.5t203 -62.5q125 0 209.5 46.5t148.5 135.5
l74 -75q-157 -215 -440 -215q-179 0 -285 91.5t-106 225.5zM403 918q0 36 28 63t65 27t63.5 -26.5t26.5 -63.5q0 -36 -27 -62.5t-63 -26.5q-37 0 -65 27t-28 62z" />
    <glyph glyph-name="Agrave" unicode="&#xc0;" horiz-adv-x="1325" 
d="M31 0l559 1366h145l559 -1366h-135l-135 336h-723l-135 -336h-135zM340 442h645l-321 799zM344 1786h127l315 -295h-90z" />
    <glyph glyph-name="Aacute" unicode="&#xc1;" horiz-adv-x="1325" 
d="M31 0l559 1366h145l559 -1366h-135l-135 336h-723l-135 -336h-135zM340 442h645l-321 799zM543 1491l315 295h127l-352 -295h-90z" />
    <glyph glyph-name="Acircumflex" unicode="&#xc2;" horiz-adv-x="1325" 
d="M31 0l559 1366h145l559 -1366h-135l-135 336h-723l-135 -336h-135zM340 442h645l-321 799zM410 1491l198 295h111l203 -295h-82l-176 231l-172 -231h-82z" />
    <glyph glyph-name="Atilde" unicode="&#xc3;" horiz-adv-x="1325" 
d="M31 0l559 1366h145l559 -1366h-135l-135 336h-723l-135 -336h-135zM340 442h645l-321 799zM350 1499q0 120 51 197.5t140 77.5q42 0 74 -21.5t51 -52t36.5 -61.5t41 -52.5t53.5 -21.5q49 0 79.5 49t30.5 147h72q0 -120 -50 -197t-141 -77q-42 0 -74 21.5t-51 52
t-36.5 61.5t-41 52.5t-53.5 21.5q-49 0 -79.5 -49t-30.5 -148h-72z" />
    <glyph glyph-name="Adieresis" unicode="&#xc4;" horiz-adv-x="1325" 
d="M31 0l559 1366h145l559 -1366h-135l-135 336h-723l-135 -336h-135zM340 442h645l-321 799zM379 1575q0 31 22.5 53.5t53.5 22.5t53 -22.5t22 -53.5t-22 -53.5t-53 -22.5t-53.5 22.5t-22.5 53.5zM797 1575q0 31 22 53.5t53 22.5t53.5 -22.5t22.5 -53.5t-22.5 -53.5
t-53.5 -22.5t-53 22.5t-22 53.5z" />
    <glyph glyph-name="Aring" unicode="&#xc5;" horiz-adv-x="1325" 
d="M31 0l559 1366h145l559 -1366h-135l-135 336h-723l-135 -336h-135zM340 442h645l-321 799zM469 1614q0 82 57.5 139t139.5 57q80 0 137 -57.5t57 -138.5q0 -80 -57.5 -138.5t-136.5 -58.5q-81 0 -139 58.5t-58 138.5zM535 1614q0 -54 38.5 -92.5t92.5 -38.5t91.5 38.5
t37.5 92.5t-37.5 92.5t-91.5 38.5t-92.5 -38.5t-38.5 -92.5z" />
    <glyph glyph-name="AE" unicode="&#xc6;" horiz-adv-x="1923" 
d="M29 0l862 1366h909v-106h-747v-506h733v-107h-733v-541h747v-106h-866v336h-561l-209 -336h-135zM432 442h502v799z" />
    <glyph glyph-name="Ccedilla" unicode="&#xc7;" horiz-adv-x="1374" 
d="M119 682q0 154 54 287t147 224.5t220 143.5t271 52q306 0 498 -242l-99 -64q-66 91 -172 145t-227 54q-119 0 -223.5 -44t-181 -122t-120.5 -190.5t-44 -243.5q0 -173 75.5 -310.5t205.5 -213.5t288 -76q121 0 227 54t172 145l101 -62q-196 -238 -486 -244l-30 -81
q31 22 75 22q60 0 98 -37t38 -98q0 -71 -59.5 -115.5t-147.5 -44.5q-60 0 -114.5 17t-84.5 43l35 65q68 -57 162 -57q56 0 94.5 25t38.5 67q0 38 -21 60t-61 22q-52 0 -84 -37l-55 33l43 118q-133 10 -249.5 66t-201.5 146.5t-133.5 218t-48.5 274.5z" />
    <glyph glyph-name="Egrave" unicode="&#xc8;" horiz-adv-x="1155" 
d="M170 0v1366h866v-106h-749v-506h735v-107h-735v-541h749v-106h-866zM283 1786h127l315 -295h-90z" />
    <glyph glyph-name="Eacute" unicode="&#xc9;" horiz-adv-x="1155" 
d="M170 0v1366h866v-106h-749v-506h735v-107h-735v-541h749v-106h-866zM481 1491l316 295h127l-353 -295h-90z" />
    <glyph glyph-name="Ecircumflex" unicode="&#xca;" horiz-adv-x="1155" 
d="M170 0v1366h866v-106h-749v-506h735v-107h-735v-541h749v-106h-866zM344 1491l199 295h110l203 -295h-82l-176 231l-172 -231h-82z" />
    <glyph glyph-name="Edieresis" unicode="&#xcb;" horiz-adv-x="1155" 
d="M170 0v1366h866v-106h-749v-506h735v-107h-735v-541h749v-106h-866zM315 1575q0 31 22.5 53.5t53.5 22.5t53.5 -22.5t22.5 -53.5t-22.5 -53.5t-53.5 -22.5t-53.5 22.5t-22.5 53.5zM733 1575q0 31 22.5 53.5t53.5 22.5t53.5 -22.5t22.5 -53.5t-22.5 -53.5t-53.5 -22.5
t-53.5 22.5t-22.5 53.5z" />
    <glyph glyph-name="Igrave" unicode="&#xcc;" horiz-adv-x="456" 
d="M-90 1786h127l315 -295h-90zM170 0v1366h117v-1366h-117z" />
    <glyph glyph-name="Iacute" unicode="&#xcd;" horiz-adv-x="456" 
d="M109 1491l315 295h127l-352 -295h-90zM170 0v1366h117v-1366h-117z" />
    <glyph glyph-name="Icircumflex" unicode="&#xce;" horiz-adv-x="456" 
d="M-25 1491l199 295h111l202 -295h-81l-177 231l-172 -231h-82zM170 0v1366h117v-1366h-117z" />
    <glyph glyph-name="Idieresis" unicode="&#xcf;" horiz-adv-x="456" 
d="M-55 1575q0 31 22 53.5t53 22.5t53.5 -22.5t22.5 -53.5t-22.5 -53.5t-53.5 -22.5t-53 22.5t-22 53.5zM170 0v1366h117v-1366h-117zM362 1575q0 31 22.5 53.5t53.5 22.5t53.5 -22.5t22.5 -53.5t-22.5 -53.5t-53.5 -22.5t-53.5 22.5t-22.5 53.5z" />
    <glyph glyph-name="Eth" unicode="&#xd0;" horiz-adv-x="1476" 
d="M23 631v94h206v641h437q155 0 286 -54t218.5 -147t136.5 -218t49 -265q0 -142 -49 -266.5t-136.5 -216.5t-218.5 -145.5t-286 -53.5h-437v631h-206zM346 106h320q175 0 305.5 78t196 207.5t65.5 290.5t-65 291t-195.5 208.5t-306.5 78.5h-320v-535h369v-94h-369v-525z
" />
    <glyph glyph-name="Ntilde" unicode="&#xd1;" horiz-adv-x="1431" 
d="M170 0v1366h119l856 -1157v1157h117v-1366h-115l-860 1174v-1174h-117zM397 1499q0 120 51 197.5t140 77.5q42 0 74 -21.5t51 -52t36.5 -61.5t41 -52.5t53.5 -21.5q49 0 79.5 49t30.5 147h72q0 -120 -49.5 -197t-140.5 -77q-42 0 -74 21.5t-51 52t-36.5 61.5t-41 52.5
t-53.5 21.5q-49 0 -80 -49t-31 -148h-72z" />
    <glyph glyph-name="Ograve" unicode="&#xd2;" horiz-adv-x="1564" 
d="M119 682q0 149 47.5 279t133 224.5t210.5 149t272 54.5q195 0 347.5 -93.5t234.5 -254t82 -359.5t-82 -359.5t-234.5 -254t-347.5 -93.5q-147 0 -272 54.5t-210.5 149t-133 224.5t-47.5 279zM242 682q0 -172 65.5 -307.5t189 -214t285.5 -78.5q161 0 285 78t190 214.5
t66 307.5q0 172 -66 308.5t-190 214t-285 77.5q-244 0 -392 -168.5t-148 -431.5zM471 1786h127l315 -295h-90z" />
    <glyph glyph-name="Oacute" unicode="&#xd3;" horiz-adv-x="1564" 
d="M119 682q0 149 47.5 279t133 224.5t210.5 149t272 54.5q195 0 347.5 -93.5t234.5 -254t82 -359.5t-82 -359.5t-234.5 -254t-347.5 -93.5q-147 0 -272 54.5t-210.5 149t-133 224.5t-47.5 279zM242 682q0 -172 65.5 -307.5t189 -214t285.5 -78.5q161 0 285 78t190 214.5
t66 307.5q0 172 -66 308.5t-190 214t-285 77.5q-244 0 -392 -168.5t-148 -431.5zM664 1491l315 295h127l-352 -295h-90z" />
    <glyph glyph-name="Ocircumflex" unicode="&#xd4;" horiz-adv-x="1564" 
d="M119 682q0 149 47.5 279t133 224.5t210.5 149t272 54.5q195 0 347.5 -93.5t234.5 -254t82 -359.5t-82 -359.5t-234.5 -254t-347.5 -93.5q-147 0 -272 54.5t-210.5 149t-133 224.5t-47.5 279zM242 682q0 -172 65.5 -307.5t189 -214t285.5 -78.5q161 0 285 78t190 214.5
t66 307.5q0 172 -66 308.5t-190 214t-285 77.5q-244 0 -392 -168.5t-148 -431.5zM530 1491l199 295h111l202 -295h-81l-177 231l-172 -231h-82z" />
    <glyph glyph-name="Otilde" unicode="&#xd5;" horiz-adv-x="1564" 
d="M119 682q0 149 47.5 279t133 224.5t210.5 149t272 54.5q195 0 347.5 -93.5t234.5 -254t82 -359.5t-82 -359.5t-234.5 -254t-347.5 -93.5q-147 0 -272 54.5t-210.5 149t-133 224.5t-47.5 279zM242 682q0 -172 65.5 -307.5t189 -214t285.5 -78.5q161 0 285 78t190 214.5
t66 307.5q0 172 -66 308.5t-190 214t-285 77.5q-244 0 -392 -168.5t-148 -431.5zM469 1499q0 120 50.5 197.5t139.5 77.5q42 0 74 -21.5t51 -52t36.5 -61.5t41 -52.5t53.5 -21.5q49 0 80 49t31 147h72q0 -120 -50 -197t-141 -77q-42 0 -74 21.5t-51 52t-36.5 61.5t-41 52.5
t-53.5 21.5q-49 0 -79.5 -49t-30.5 -148h-72z" />
    <glyph glyph-name="Odieresis" unicode="&#xd6;" horiz-adv-x="1564" 
d="M119 682q0 149 47.5 279t133 224.5t210.5 149t272 54.5q195 0 347.5 -93.5t234.5 -254t82 -359.5t-82 -359.5t-234.5 -254t-347.5 -93.5q-147 0 -272 54.5t-210.5 149t-133 224.5t-47.5 279zM242 682q0 -172 65.5 -307.5t189 -214t285.5 -78.5q161 0 285 78t190 214.5
t66 307.5q0 172 -66 308.5t-190 214t-285 77.5q-244 0 -392 -168.5t-148 -431.5zM496 1575q0 31 22 53.5t53 22.5t53.5 -22.5t22.5 -53.5t-22.5 -53.5t-53.5 -22.5t-53 22.5t-22 53.5zM913 1575q0 31 22.5 53.5t53.5 22.5t53.5 -22.5t22.5 -53.5t-22.5 -53.5t-53.5 -22.5
t-53.5 22.5t-22.5 53.5z" />
    <glyph glyph-name="multiply" unicode="&#xd7;" horiz-adv-x="1015" 
d="M137 373l312 311l-312 311l62 60l309 -312l311 312l60 -60l-312 -311l312 -311l-60 -60l-311 312l-309 -312z" />
    <glyph glyph-name="Oslash" unicode="&#xd8;" horiz-adv-x="1564" 
d="M119 682q0 149 47.5 279t133 224.5t210.5 149t272 54.5q181 0 336 -89l41 66h107l-74 -115q121 -96 187.5 -244t66.5 -325q0 -199 -82 -359.5t-234.5 -254t-347.5 -93.5q-188 0 -344 91l-41 -66h-104l74 115q-119 95 -183.5 242.5t-64.5 324.5zM242 682
q0 -146 48.5 -267.5t137.5 -201.5l631 995q-123 74 -277 74q-244 0 -392 -168.5t-148 -431.5zM498 160q127 -78 284 -78q161 0 285 78t190 214.5t66 307.5q0 149 -50 271t-143 202z" />
    <glyph glyph-name="Ugrave" unicode="&#xd9;" horiz-adv-x="1404" 
d="M170 524v842h119v-840q0 -209 107 -326.5t306 -117.5t306.5 117.5t107.5 326.5v840h119v-842q0 -258 -136.5 -403.5t-396.5 -145.5q-258 0 -395 146t-137 403zM387 1786h127l315 -295h-90z" />
    <glyph glyph-name="Uacute" unicode="&#xda;" horiz-adv-x="1404" 
d="M170 524v842h119v-840q0 -209 107 -326.5t306 -117.5t306.5 117.5t107.5 326.5v840h119v-842q0 -258 -136.5 -403.5t-396.5 -145.5q-258 0 -395 146t-137 403zM580 1491l315 295h127l-352 -295h-90z" />
    <glyph glyph-name="Ucircumflex" unicode="&#xdb;" horiz-adv-x="1404" 
d="M170 524v842h119v-840q0 -209 107 -326.5t306 -117.5t306.5 117.5t107.5 326.5v840h119v-842q0 -258 -136.5 -403.5t-396.5 -145.5q-258 0 -395 146t-137 403zM455 1491l198 295h111l203 -295h-82l-176 231l-172 -231h-82z" />
    <glyph glyph-name="Udieresis" unicode="&#xdc;" horiz-adv-x="1404" 
d="M170 524v842h119v-840q0 -209 107 -326.5t306 -117.5t306.5 117.5t107.5 326.5v840h119v-842q0 -258 -136.5 -403.5t-396.5 -145.5q-258 0 -395 146t-137 403zM420 1575q0 31 22.5 53.5t53.5 22.5t53 -22.5t22 -53.5t-22 -53.5t-53 -22.5t-53.5 22.5t-22.5 53.5z
M838 1575q0 31 22 53.5t53 22.5t53.5 -22.5t22.5 -53.5t-22.5 -53.5t-53.5 -22.5t-53 22.5t-22 53.5z" />
    <glyph glyph-name="Yacute" unicode="&#xdd;" horiz-adv-x="1265" 
d="M31 1366h141l461 -672l461 672h141l-543 -782v-584h-119v584zM520 1491l316 295h127l-353 -295h-90z" />
    <glyph glyph-name="Thorn" unicode="&#xde;" 
d="M170 0v1366h117v-254h395q189 0 300.5 -116t111.5 -285q0 -109 -48 -198.5t-143 -144.5t-221 -55h-395v-313h-117zM287 420h383q135 0 218 81t83 210q0 130 -83 212.5t-218 82.5h-383v-586z" />
    <glyph glyph-name="germandbls" unicode="&#xdf;" horiz-adv-x="1183" 
d="M166 0v1042q0 148 98 246t258 98q136 0 233 -66t97 -175q0 -61 -33.5 -108t-81 -77.5t-95 -59.5t-81 -69.5t-33.5 -91.5q0 -50 34 -83.5t88 -51.5t119 -33t130.5 -35.5t119.5 -50t88 -85t34 -132.5q0 -123 -94 -208t-273 -85q-136 0 -218.5 41t-154.5 117l64 78
q48 -64 127.5 -104.5t181.5 -40.5q125 0 193.5 58.5t68.5 141.5q0 55 -34 92.5t-87.5 58.5t-119 38t-131 37t-119 47.5t-87.5 79t-34 122.5q0 62 33 112t80 82.5t93.5 61.5t79.5 64t33 76q0 70 -68.5 111.5t-152.5 41.5q-105 0 -177.5 -68t-72.5 -180v-1042h-106z" />
    <glyph glyph-name="agrave" unicode="&#xe0;" 
d="M111 494q0 234 121.5 377t318.5 143q104 0 193.5 -49t150.5 -136v160h109v-989h-109v158q-55 -80 -146.5 -131.5t-197.5 -51.5q-198 0 -319 141.5t-121 377.5zM223 494q0 -185 93 -303.5t253 -118.5q101 0 191 51t135 125v489q-45 75 -135.5 128t-190.5 53
q-160 0 -253 -119.5t-93 -304.5zM279 1434h127l315 -295h-90z" />
    <glyph glyph-name="aacute" unicode="&#xe1;" 
d="M111 494q0 234 121.5 377t318.5 143q104 0 193.5 -49t150.5 -136v160h109v-989h-109v158q-55 -80 -146.5 -131.5t-197.5 -51.5q-198 0 -319 141.5t-121 377.5zM223 494q0 -185 93 -303.5t253 -118.5q101 0 191 51t135 125v489q-45 75 -135.5 128t-190.5 53
q-160 0 -253 -119.5t-93 -304.5zM475 1139l316 295h127l-353 -295h-90z" />
    <glyph glyph-name="acircumflex" unicode="&#xe2;" 
d="M111 494q0 234 121.5 377t318.5 143q104 0 193.5 -49t150.5 -136v160h109v-989h-109v158q-55 -80 -146.5 -131.5t-197.5 -51.5q-198 0 -319 141.5t-121 377.5zM223 494q0 -185 93 -303.5t253 -118.5q101 0 191 51t135 125v489q-45 75 -135.5 128t-190.5 53
q-160 0 -253 -119.5t-93 -304.5zM340 1139l199 295h110l203 -295h-82l-176 231l-172 -231h-82z" />
    <glyph glyph-name="atilde" unicode="&#xe3;" 
d="M111 494q0 234 121.5 377t318.5 143q104 0 193.5 -49t150.5 -136v160h109v-989h-109v158q-55 -80 -146.5 -131.5t-197.5 -51.5q-198 0 -319 141.5t-121 377.5zM223 494q0 -185 93 -303.5t253 -118.5q101 0 191 51t135 125v489q-45 75 -135.5 128t-190.5 53
q-160 0 -253 -119.5t-93 -304.5zM279 1147q0 120 50.5 197t139.5 77q42 0 74 -21.5t51 -52t36.5 -61.5t41 -52.5t53.5 -21.5q49 0 80 49.5t31 147.5h71q0 -120 -49.5 -197t-140.5 -77q-42 0 -74 21.5t-51 52t-36.5 61t-41 52t-53.5 21.5q-49 0 -80 -48.5t-31 -147.5h-71z
" />
    <glyph glyph-name="adieresis" unicode="&#xe4;" 
d="M111 494q0 234 121.5 377t318.5 143q104 0 193.5 -49t150.5 -136v160h109v-989h-109v158q-55 -80 -146.5 -131.5t-197.5 -51.5q-198 0 -319 141.5t-121 377.5zM223 494q0 -185 93 -303.5t253 -118.5q101 0 191 51t135 125v489q-45 75 -135.5 128t-190.5 53
q-160 0 -253 -119.5t-93 -304.5zM309 1231q0 31 22.5 53.5t53.5 22.5t53.5 -22.5t22.5 -53.5t-22.5 -53.5t-53.5 -22.5t-53.5 22.5t-22.5 53.5zM727 1231q0 31 22.5 53.5t53.5 22.5t53.5 -22.5t22.5 -53.5t-22.5 -53.5t-53.5 -22.5t-53.5 22.5t-22.5 53.5z" />
    <glyph glyph-name="aring" unicode="&#xe5;" 
d="M111 494q0 234 121.5 377t318.5 143q104 0 193.5 -49t150.5 -136v160h109v-989h-109v158q-55 -80 -146.5 -131.5t-197.5 -51.5q-198 0 -319 141.5t-121 377.5zM223 494q0 -185 93 -303.5t253 -118.5q101 0 191 51t135 125v489q-45 75 -135.5 128t-190.5 53
q-160 0 -253 -119.5t-93 -304.5zM391 1337q0 82 57.5 139.5t139.5 57.5q80 0 137 -57.5t57 -139.5q0 -80 -57.5 -138t-136.5 -58q-81 0 -139 58t-58 138zM457 1337q0 -54 38.5 -92.5t92.5 -38.5t91.5 38.5t37.5 92.5t-37.5 92.5t-91.5 38.5t-92.5 -38.5t-38.5 -92.5z" />
    <glyph glyph-name="ae" unicode="&#xe6;" horiz-adv-x="1939" 
d="M111 494q0 234 121.5 377t318.5 143q104 0 193.5 -49t150.5 -136v160h109v-219q56 114 152.5 179t223.5 65q141 0 245 -72t155 -189.5t51 -263.5v-28h-827q6 -167 111.5 -280t273.5 -113q191 0 325 137l55 -70q-153 -160 -368 -160q-136 0 -238 63.5t-159 176.5v-215
h-109v158q-55 -80 -146.5 -131.5t-197.5 -51.5q-198 0 -319 141.5t-121 377.5zM223 494q0 -185 93 -303.5t253 -118.5q101 0 191 51t135 125v489q-45 75 -135.5 128t-190.5 53q-160 0 -253 -119.5t-93 -304.5zM1004 545h718q-1 66 -23 130.5t-64 120.5t-113 91t-160 35
q-84 0 -153 -34.5t-112 -90t-67 -120.5t-26 -132z" />
    <glyph glyph-name="ccedilla" unicode="&#xe7;" horiz-adv-x="1011" 
d="M111 496q0 221 132.5 369.5t346.5 148.5q121 0 202.5 -43t147.5 -125l-74 -66q-101 138 -270 138q-170 0 -271.5 -119.5t-101.5 -302.5t102 -303.5t271 -120.5q168 0 270 139l74 -66q-62 -79 -136 -121.5t-183 -48.5l-33 -86q33 23 76 23q60 0 97.5 -37t37.5 -98
q0 -71 -59.5 -115.5t-147.5 -44.5q-60 0 -114.5 16.5t-84.5 42.5l35 66q68 -57 162 -57q56 0 94.5 25t38.5 67q0 38 -21 60t-61 22q-52 0 -84 -37l-55 33l43 122q-196 17 -315 163.5t-119 355.5z" />
    <glyph glyph-name="egrave" unicode="&#xe8;" horiz-adv-x="1161" 
d="M111 496q0 142 61 260.5t170.5 188t243.5 69.5q146 0 253.5 -72t160.5 -189.5t53 -263.5v-28h-828q8 -167 113 -280t274 -113q196 0 324 137l55 -70q-154 -160 -387 -160q-217 0 -355 146t-138 375zM225 545h719q-1 66 -23 130.5t-64 120.5t-113 91t-160 35
q-84 0 -153 -34.5t-111.5 -90t-67 -120.5t-27.5 -132zM268 1434h127l316 -295h-90z" />
    <glyph glyph-name="eacute" unicode="&#xe9;" horiz-adv-x="1161" 
d="M111 496q0 142 61 260.5t170.5 188t243.5 69.5q146 0 253.5 -72t160.5 -189.5t53 -263.5v-28h-828q8 -167 113 -280t274 -113q196 0 324 137l55 -70q-154 -160 -387 -160q-217 0 -355 146t-138 375zM225 545h719q-1 66 -23 130.5t-64 120.5t-113 91t-160 35
q-84 0 -153 -34.5t-111.5 -90t-67 -120.5t-27.5 -132zM467 1139l315 295h127l-352 -295h-90z" />
    <glyph glyph-name="ecircumflex" unicode="&#xea;" horiz-adv-x="1161" 
d="M111 496q0 142 61 260.5t170.5 188t243.5 69.5q146 0 253.5 -72t160.5 -189.5t53 -263.5v-28h-828q8 -167 113 -280t274 -113q196 0 324 137l55 -70q-154 -160 -387 -160q-217 0 -355 146t-138 375zM225 545h719q-1 66 -23 130.5t-64 120.5t-113 91t-160 35
q-84 0 -153 -34.5t-111.5 -90t-67 -120.5t-27.5 -132zM334 1139l198 295h111l203 -295h-82l-176 231l-172 -231h-82z" />
    <glyph glyph-name="edieresis" unicode="&#xeb;" horiz-adv-x="1161" 
d="M111 496q0 142 61 260.5t170.5 188t243.5 69.5q146 0 253.5 -72t160.5 -189.5t53 -263.5v-28h-828q8 -167 113 -280t274 -113q196 0 324 137l55 -70q-154 -160 -387 -160q-217 0 -355 146t-138 375zM225 545h719q-1 66 -23 130.5t-64 120.5t-113 91t-160 35
q-84 0 -153 -34.5t-111.5 -90t-67 -120.5t-27.5 -132zM303 1231q0 31 22.5 53.5t53.5 22.5t53.5 -22.5t22.5 -53.5t-22.5 -53.5t-53.5 -22.5t-53.5 22.5t-22.5 53.5zM721 1231q0 31 22.5 53.5t53.5 22.5t53 -22.5t22 -53.5t-22 -53.5t-53 -22.5t-53.5 22.5t-22.5 53.5z" />
    <glyph glyph-name="igrave" unicode="&#xec;" horiz-adv-x="438" 
d="M-102 1434h127l315 -295h-90zM166 0v989h106v-989h-106z" />
    <glyph glyph-name="iacute" unicode="&#xed;" horiz-adv-x="438" 
d="M98 1139l316 295h127l-353 -295h-90zM166 0v989h106v-989h-106z" />
    <glyph glyph-name="icircumflex" unicode="&#xee;" horiz-adv-x="438" 
d="M-37 1139l199 295h110l203 -295h-82l-176 231l-172 -231h-82zM166 0v989h106v-989h-106z" />
    <glyph glyph-name="idieresis" unicode="&#xef;" horiz-adv-x="438" 
d="M-66 1231q0 31 22.5 53.5t53.5 22.5t53.5 -22.5t22.5 -53.5t-22.5 -53.5t-53.5 -22.5t-53.5 22.5t-22.5 53.5zM166 0v989h106v-989h-106zM352 1231q0 31 22.5 53.5t53.5 22.5t53.5 -22.5t22.5 -53.5t-22.5 -53.5t-53.5 -22.5t-53.5 22.5t-22.5 53.5z" />
    <glyph glyph-name="eth" unicode="&#xf0;" 
d="M111 487q0 220 126.5 365t327.5 145q197 0 322 -178q-117 192 -330 352l-291 -127l-28 70l247 109q-5 3 -166 108l62 90q123 -74 221 -147l223 98l29 -67l-186 -84q393 -327 393 -721q0 -149 -57.5 -267.5t-167 -188t-252.5 -69.5q-140 0 -249 67.5t-166.5 184
t-57.5 260.5zM223 487q0 -110 41.5 -203.5t125.5 -152.5t194 -59q112 0 196 59t125 152t41 204q0 110 -41 202.5t-125 152t-196 59.5q-110 0 -194 -59t-125.5 -152.5t-41.5 -202.5z" />
    <glyph glyph-name="ntilde" unicode="&#xf1;" horiz-adv-x="1105" 
d="M170 0v989h106v-149q59 70 157.5 122t199.5 52q311 0 311 -322v-692h-106v670q0 135 -62 191.5t-178 56.5q-92 0 -182.5 -50t-139.5 -120v-748h-106zM240 1147q0 120 50.5 197t139.5 77q42 0 74 -21.5t51 -52t36.5 -61.5t41 -52.5t53.5 -21.5q49 0 80 49.5t31 147.5h71
q0 -120 -49.5 -197t-140.5 -77q-42 0 -74 21.5t-51 52t-36.5 61t-41 52t-53.5 21.5q-49 0 -80 -48.5t-31 -147.5h-71z" />
    <glyph glyph-name="ograve" unicode="&#xf2;" 
d="M111 496q0 222 130.5 370t342.5 148q143 0 252.5 -69.5t167 -186.5t57.5 -262t-57.5 -263t-167 -188t-252.5 -70q-141 0 -250 70t-166 188t-57 263zM223 496q0 -112 41.5 -207.5t125.5 -156t194 -60.5q112 0 196 60.5t125 155.5t41 208q0 112 -41 206.5t-125 155
t-196 60.5q-110 0 -194 -60.5t-125.5 -155t-41.5 -206.5zM266 1434h127l316 -295h-91z" />
    <glyph glyph-name="oacute" unicode="&#xf3;" 
d="M111 496q0 222 130.5 370t342.5 148q143 0 252.5 -69.5t167 -186.5t57.5 -262t-57.5 -263t-167 -188t-252.5 -70q-141 0 -250 70t-166 188t-57 263zM223 496q0 -112 41.5 -207.5t125.5 -156t194 -60.5q112 0 196 60.5t125 155.5t41 208q0 112 -41 206.5t-125 155
t-196 60.5q-110 0 -194 -60.5t-125.5 -155t-41.5 -206.5zM465 1139l315 295h127l-352 -295h-90z" />
    <glyph glyph-name="ocircumflex" unicode="&#xf4;" 
d="M111 496q0 222 130.5 370t342.5 148q143 0 252.5 -69.5t167 -186.5t57.5 -262t-57.5 -263t-167 -188t-252.5 -70q-141 0 -250 70t-166 188t-57 263zM223 496q0 -112 41.5 -207.5t125.5 -156t194 -60.5q112 0 196 60.5t125 155.5t41 208q0 112 -41 206.5t-125 155
t-196 60.5q-110 0 -194 -60.5t-125.5 -155t-41.5 -206.5zM332 1139l198 295h111l203 -295h-82l-176 231l-172 -231h-82z" />
    <glyph glyph-name="otilde" unicode="&#xf5;" 
d="M111 496q0 222 130.5 370t342.5 148q143 0 252.5 -69.5t167 -186.5t57.5 -262t-57.5 -263t-167 -188t-252.5 -70q-141 0 -250 70t-166 188t-57 263zM223 496q0 -112 41.5 -207.5t125.5 -156t194 -60.5q112 0 196 60.5t125 155.5t41 208q0 112 -41 206.5t-125 155
t-196 60.5q-110 0 -194 -60.5t-125.5 -155t-41.5 -206.5zM270 1147q0 120 50.5 197t140.5 77q42 0 74 -21.5t51 -52t36.5 -61.5t41 -52.5t53.5 -21.5q49 0 79.5 49.5t30.5 147.5h72q0 -120 -49.5 -197t-140.5 -77q-42 0 -74 21.5t-51 52t-36.5 61t-41 52t-53.5 21.5
q-49 0 -80 -48.5t-31 -147.5h-72z" />
    <glyph glyph-name="odieresis" unicode="&#xf6;" 
d="M111 496q0 222 130.5 370t342.5 148q143 0 252.5 -69.5t167 -186.5t57.5 -262t-57.5 -263t-167 -188t-252.5 -70q-141 0 -250 70t-166 188t-57 263zM223 496q0 -112 41.5 -207.5t125.5 -156t194 -60.5q112 0 196 60.5t125 155.5t41 208q0 112 -41 206.5t-125 155
t-196 60.5q-110 0 -194 -60.5t-125.5 -155t-41.5 -206.5zM301 1231q0 31 22.5 53.5t53.5 22.5t53.5 -22.5t22.5 -53.5t-22.5 -53.5t-53.5 -22.5t-53.5 22.5t-22.5 53.5zM719 1231q0 31 22.5 53.5t53.5 22.5t53 -22.5t22 -53.5t-22 -53.5t-53 -22.5t-53.5 22.5t-22.5 53.5z
" />
    <glyph glyph-name="divide" unicode="&#xf7;" horiz-adv-x="1046" 
d="M59 647v86h928v-86h-928zM442 285q0 32 24 56t58 24q32 0 56 -24t24 -56q0 -34 -24 -58t-56 -24q-34 0 -58 24t-24 58zM442 1087q0 34 24 57t58 23q33 0 56.5 -23.5t23.5 -56.5q0 -32 -24 -56.5t-56 -24.5q-34 0 -58 24t-24 57z" />
    <glyph glyph-name="oslash" unicode="&#xf8;" 
d="M111 496q0 222 130.5 370t342.5 148q158 0 276 -88l49 63h90l-84 -108q70 -71 108 -170.5t38 -214.5q0 -145 -57.5 -263t-167 -188t-252.5 -70q-166 0 -287 97l-55 -72h-90l92 121q-64 70 -98.5 167t-34.5 208zM223 496q0 -169 88 -289l486 637q-90 74 -213 74
q-110 0 -194 -60.5t-125.5 -155t-41.5 -206.5zM360 154q92 -82 224 -82q112 0 196 60.5t125 155.5t41 208q0 173 -98 297z" />
    <glyph glyph-name="ugrave" unicode="&#xf9;" horiz-adv-x="1105" 
d="M166 293v696h106v-672q0 -136 61.5 -190.5t178.5 -54.5q92 0 181 47.5t141 116.5v753h106v-989h-106v145q-65 -73 -160.5 -121.5t-196.5 -48.5q-154 0 -232.5 77t-78.5 241zM238 1434h127l315 -295h-90z" />
    <glyph glyph-name="uacute" unicode="&#xfa;" horiz-adv-x="1105" 
d="M166 293v696h106v-672q0 -136 61.5 -190.5t178.5 -54.5q92 0 181 47.5t141 116.5v753h106v-989h-106v145q-65 -73 -160.5 -121.5t-196.5 -48.5q-154 0 -232.5 77t-78.5 241zM434 1139l316 295h127l-353 -295h-90z" />
    <glyph glyph-name="ucircumflex" unicode="&#xfb;" horiz-adv-x="1105" 
d="M166 293v696h106v-672q0 -136 61.5 -190.5t178.5 -54.5q92 0 181 47.5t141 116.5v753h106v-989h-106v145q-65 -73 -160.5 -121.5t-196.5 -48.5q-154 0 -232.5 77t-78.5 241zM297 1139l199 295h110l203 -295h-82l-176 231l-172 -231h-82z" />
    <glyph glyph-name="udieresis" unicode="&#xfc;" horiz-adv-x="1105" 
d="M166 293v696h106v-672q0 -136 61.5 -190.5t178.5 -54.5q92 0 181 47.5t141 116.5v753h106v-989h-106v145q-65 -73 -160.5 -121.5t-196.5 -48.5q-154 0 -232.5 77t-78.5 241zM276 1231q0 31 22.5 53.5t53.5 22.5t53.5 -22.5t22.5 -53.5t-22.5 -53.5t-53.5 -22.5
t-53.5 22.5t-22.5 53.5zM694 1231q0 31 22.5 53.5t53.5 22.5t53.5 -22.5t22.5 -53.5t-22.5 -53.5t-53.5 -22.5t-53.5 22.5t-22.5 53.5z" />
    <glyph glyph-name="yacute" unicode="&#xfd;" horiz-adv-x="1105" 
d="M154 -252l63 86q107 -139 301 -139q148 0 232 82t84 231v148q-65 -73 -160.5 -121.5t-196.5 -48.5q-154 0 -232.5 76.5t-78.5 240.5v686h106v-663q0 -135 62 -189.5t178 -54.5q92 0 181 47.5t141 116.5v743h106v-981q0 -85 -23.5 -154.5t-63 -116t-94 -78.5t-115 -46
t-126.5 -14q-120 0 -205.5 36.5t-158.5 112.5zM428 1139l315 295h127l-352 -295h-90z" />
    <glyph glyph-name="thorn" unicode="&#xfe;" horiz-adv-x="1161" 
d="M166 -377v1743h106v-532q55 79 146.5 129.5t197.5 50.5q199 0 321 -141t122 -377q0 -235 -122 -378t-321 -143q-103 0 -193 49.5t-151 135.5v-537h-106zM272 252q45 -74 136 -127t190 -53q161 0 253.5 119t92.5 305q0 185 -92 303.5t-254 118.5q-99 0 -190 -51.5
t-136 -125.5v-489z" />
    <glyph glyph-name="ydieresis" unicode="&#xff;" horiz-adv-x="1105" 
d="M154 -252l63 86q107 -139 301 -139q148 0 232 82t84 231v148q-65 -73 -160.5 -121.5t-196.5 -48.5q-154 0 -232.5 76.5t-78.5 240.5v686h106v-663q0 -135 62 -189.5t178 -54.5q92 0 181 47.5t141 116.5v743h106v-981q0 -85 -23.5 -154.5t-63 -116t-94 -78.5t-115 -46
t-126.5 -14q-120 0 -205.5 36.5t-158.5 112.5zM258 1231q0 31 22.5 53.5t53.5 22.5t53.5 -22.5t22.5 -53.5t-22.5 -53.5t-53.5 -22.5t-53.5 22.5t-22.5 53.5zM676 1231q0 31 22.5 53.5t53.5 22.5t53 -22.5t22 -53.5t-22 -53.5t-53 -22.5t-53.5 22.5t-22.5 53.5z" />
    <glyph glyph-name="OE" unicode="&#x152;" horiz-adv-x="2283" 
d="M119 682q0 149 47.5 278.5t132 223.5t208 148t269.5 54q162 0 302 -79t216 -226v285h867v-106h-748v-506h733v-107h-733v-541h748v-106h-867v285q-76 -148 -216 -229t-302 -81q-194 0 -345 93.5t-231.5 254t-80.5 359.5zM242 682q0 -173 65.5 -308.5t189.5 -213.5
t287 -78q176 0 310.5 94.5t199.5 276.5v460q-64 181 -198.5 274t-311.5 93q-163 0 -287 -77.5t-189.5 -212.5t-65.5 -308z" />
    <glyph glyph-name="oe" unicode="&#x153;" horiz-adv-x="1996" 
d="M111 496q0 222 130.5 370t342.5 148q75 0 141 -22t110.5 -54.5t80.5 -76t55.5 -81t32.5 -75.5q17 48 47.5 97t80 99t125 81.5t164.5 31.5q146 0 253.5 -72t160.5 -189.5t53 -263.5v-28h-825q6 -167 110.5 -280t274.5 -113q196 0 324 137l57 -70q-157 -160 -387 -160
q-78 0 -146 21t-114.5 52.5t-84 74.5t-58.5 82t-35 80q-15 -40 -34.5 -77t-56 -81.5t-80 -76.5t-109 -53.5t-140.5 -21.5q-141 0 -250 70t-166 188t-57 263zM223 496q0 -114 42 -210t125.5 -156t193.5 -60q166 0 264 124.5t98 301.5q0 113 -41.5 208t-125.5 154.5t-195 59.5
q-110 0 -193.5 -59.5t-125.5 -154.5t-42 -208zM1061 545h719q0 65 -22 130t-64.5 121t-114 91t-160.5 35q-83 0 -151.5 -34.5t-111.5 -90t-67.5 -120.5t-27.5 -132z" />
    <glyph glyph-name="Ydieresis" unicode="&#x178;" horiz-adv-x="1265" 
d="M31 1366h141l461 -672l461 672h141l-543 -782v-584h-119v584zM356 1575q0 31 22.5 53.5t53.5 22.5t53.5 -22.5t22.5 -53.5t-22.5 -53.5t-53.5 -22.5t-53.5 22.5t-22.5 53.5zM774 1575q0 31 22.5 53.5t53.5 22.5t53.5 -22.5t22.5 -53.5t-22.5 -53.5t-53.5 -22.5
t-53.5 22.5t-22.5 53.5z" />
    <glyph glyph-name="circumflex" unicode="&#x2c6;" horiz-adv-x="512" 
d="M0 1139l199 295h110l203 -295h-82l-176 231l-172 -231h-82z" />
    <glyph glyph-name="tilde" unicode="&#x2dc;" horiz-adv-x="628" 
d="M0 1147q0 120 50.5 197t139.5 77q42 0 74 -21.5t51 -52t36.5 -61.5t41 -52.5t53.5 -21.5q49 0 80 49.5t31 147.5h72q0 -120 -50 -197t-141 -77q-42 0 -74 21.5t-51 52t-36.5 61t-41 52t-53.5 21.5q-49 0 -79.5 -48.5t-30.5 -147.5h-72z" />
    <glyph glyph-name="uni2000" unicode="&#x2000;" horiz-adv-x="905" 
 />
    <glyph glyph-name="uni2001" unicode="&#x2001;" horiz-adv-x="1810" 
 />
    <glyph glyph-name="uni2002" unicode="&#x2002;" horiz-adv-x="905" 
 />
    <glyph glyph-name="uni2003" unicode="&#x2003;" horiz-adv-x="1810" 
 />
    <glyph glyph-name="uni2004" unicode="&#x2004;" horiz-adv-x="603" 
 />
    <glyph glyph-name="uni2005" unicode="&#x2005;" horiz-adv-x="452" 
 />
    <glyph glyph-name="uni2006" unicode="&#x2006;" horiz-adv-x="301" 
 />
    <glyph glyph-name="uni2007" unicode="&#x2007;" horiz-adv-x="301" 
 />
    <glyph glyph-name="uni2008" unicode="&#x2008;" horiz-adv-x="226" 
 />
    <glyph glyph-name="uni2009" unicode="&#x2009;" horiz-adv-x="362" 
 />
    <glyph glyph-name="uni200A" unicode="&#x200a;" horiz-adv-x="100" 
 />
    <glyph glyph-name="uni2010" unicode="&#x2010;" horiz-adv-x="614" 
d="M61 446v99h492v-99h-492z" />
    <glyph glyph-name="uni2011" unicode="&#x2011;" horiz-adv-x="614" 
d="M61 446v99h492v-99h-492z" />
    <glyph glyph-name="figuredash" unicode="&#x2012;" horiz-adv-x="614" 
d="M61 446v99h492v-99h-492z" />
    <glyph glyph-name="endash" unicode="&#x2013;" horiz-adv-x="1214" 
d="M61 446v99h1092v-99h-1092z" />
    <glyph glyph-name="emdash" unicode="&#x2014;" horiz-adv-x="1705" 
d="M61 446v99h1584v-99h-1584z" />
    <glyph glyph-name="quoteleft" unicode="&#x2018;" horiz-adv-x="448" 
d="M104 1108q0 83 42.5 158t105.5 120l59 -49q-49 -34 -82 -87t-36 -103q0 4 20 4q37 0 60.5 -24.5t23.5 -61.5q0 -36 -26 -62t-62 -26q-44 0 -74.5 35.5t-30.5 95.5z" />
    <glyph glyph-name="quoteright" unicode="&#x2019;" horiz-adv-x="448" 
d="M119 1026q49 34 82.5 87.5t36.5 103.5q0 -5 -21 -5q-37 0 -60.5 24.5t-23.5 61.5q0 36 26 62t62 26q44 0 74.5 -35.5t30.5 -95.5q0 -83 -42.5 -158t-105.5 -120z" />
    <glyph glyph-name="quotesinglbase" unicode="&#x201a;" horiz-adv-x="448" 
d="M119 -201q49 33 82.5 87t36.5 102q-15 -2 -21 -2q-37 0 -60.5 24.5t-23.5 61.5q0 36 26 62t62 26q44 0 74.5 -35.5t30.5 -95.5q0 -83 -42.5 -159.5t-105.5 -119.5z" />
    <glyph glyph-name="quotedblleft" unicode="&#x201c;" horiz-adv-x="739" 
d="M123 1108q0 82 41.5 157.5t103.5 120.5l62 -49q-50 -34 -84 -87.5t-37 -102.5q4 4 22 4q35 0 58.5 -24.5t23.5 -61.5q0 -36 -25 -62t-61 -26q-43 0 -73.5 35.5t-30.5 95.5zM414 1108q0 83 41 158t104 120l62 -49q-50 -34 -84 -87.5t-37 -102.5q4 4 22 4q35 0 58.5 -24.5
t23.5 -61.5q0 -36 -25 -62t-63 -26q-43 0 -72.5 35t-29.5 96z" />
    <glyph glyph-name="quotedblright" unicode="&#x201d;" horiz-adv-x="739" 
d="M119 1026q49 34 82.5 87.5t36.5 103.5q0 -5 -21 -5q-37 0 -60.5 24.5t-23.5 61.5q0 36 26 62t62 26q44 0 74.5 -35.5t30.5 -95.5q0 -83 -42.5 -158t-105.5 -120zM408 1026q49 34 83 87.5t37 103.5q-5 -5 -22 -5q-35 0 -58.5 24.5t-23.5 61.5q0 36 25 62t63 26
q43 0 72.5 -35t29.5 -96q0 -83 -41 -158t-104 -120z" />
    <glyph glyph-name="quotedblbase" unicode="&#x201e;" horiz-adv-x="739" 
d="M119 -201q49 33 82.5 87t36.5 102q-15 -2 -21 -2q-37 0 -60.5 24.5t-23.5 61.5q0 36 26 62t62 26q44 0 74.5 -35.5t30.5 -95.5q0 -83 -42.5 -159.5t-105.5 -119.5zM408 -201q49 33 83 87t37 102l-8 -1q-9 -1 -14 -1q-35 0 -58.5 24.5t-23.5 61.5q0 36 25 62t63 26
q43 0 72.5 -35t29.5 -96q0 -83 -41.5 -159.5t-103.5 -119.5z" />
    <glyph glyph-name="bullet" unicode="&#x2022;" horiz-adv-x="733" 
d="M158 496q0 88 61.5 149.5t149.5 61.5t149.5 -61.5t61.5 -149.5q0 -86 -61.5 -147.5t-149.5 -61.5t-149.5 61.5t-61.5 147.5z" />
    <glyph glyph-name="ellipsis" unicode="&#x2026;" horiz-adv-x="1345" 
d="M135 72q0 35 26.5 61.5t63.5 26.5t63.5 -26.5t26.5 -61.5q0 -37 -26.5 -63.5t-63.5 -26.5t-63.5 26.5t-26.5 63.5zM584 72q0 35 26.5 61.5t63.5 26.5t63.5 -26.5t26.5 -61.5q0 -37 -26.5 -63.5t-63.5 -26.5t-63.5 26.5t-26.5 63.5zM1032 72q0 35 26.5 61.5t63.5 26.5
t63.5 -26.5t26.5 -61.5q0 -37 -26.5 -63.5t-63.5 -26.5t-63.5 26.5t-26.5 63.5z" />
    <glyph glyph-name="uni202F" unicode="&#x202f;" horiz-adv-x="362" 
 />
    <glyph glyph-name="guilsinglleft" unicode="&#x2039;" horiz-adv-x="567" 
d="M61 498l328 362h117l-328 -362l328 -369h-117z" />
    <glyph glyph-name="guilsinglright" unicode="&#x203a;" horiz-adv-x="567" 
d="M61 129l328 369l-328 362h117l328 -362l-328 -369h-117z" />
    <glyph glyph-name="uni205F" unicode="&#x205f;" horiz-adv-x="452" 
 />
    <glyph glyph-name="Euro" unicode="&#x20ac;" horiz-adv-x="1413" 
d="M72 496v84h96q-6 50 -6 102q0 54 6 106h-96v84h112q57 234 241 375.5t429 141.5q306 0 498 -242l-99 -64q-66 91 -172 145t-227 54q-195 0 -343 -111.5t-202 -298.5h668v-84h-684q-8 -47 -8 -106q0 -52 6 -102h686v-84h-668q54 -188 202.5 -301t342.5 -113q121 0 227 54
t172 145l101 -62q-200 -244 -500 -244q-247 0 -431 142t-241 379h-110z" />
    <glyph glyph-name="trademark" unicode="&#x2122;" horiz-adv-x="929" 
d="M35 1313v53h311v-53h-127v-398h-57v398h-127zM420 915v451h88l131 -328l131 328h88v-451h-57v373l-154 -373h-16l-154 373v-373h-57z" />
    <glyph glyph-name="uniE000" unicode="&#xe000;" horiz-adv-x="993" 
d="M0 0v993h993v-993h-993z" />
  </font>
</defs></svg>
